"Type d'identifiant PP";"Identifiant PP";"Identification nationale PP";"Code civilité exercice";"Libellé civilité exercice";"Nom d'exercice";"Prénom d'exercice";"Code profession";"Libellé profession";"Code catégorie professionnelle";"Libellé catégorie professionnelle";"Code savoir-faire";"Libellé savoir-faire";"Code type savoir-faire";"Libellé type savoir-faire";"Numéro SIRET site";"Numéro SIREN site";"Numéro FINESS site";"Numéro FINESS établissement juridique";"Raison sociale site";"Enseigne commerciale site";"Identifiant structure";"Complément destinataire (coord. structure)";"Complément point géographique (coord. structure)";"Numéro Voie (coord. structure)";"Indice répétition voie (coord. structure)";"Code type de voie (coord. structure)";"Libellé type de voie (coord. structure)";"Libellé Voie (coord. structure)";"Mention distribution (coord. structure)";"Bureau cedex (coord. structure)";"Code postal (coord. structure)";"Code commune (coord. structure)";"Libellé commune (coord. structure)";"Code pays (coord. structure)";"Libellé pays (coord. structure)";"Téléphone (coord. structure)";"Téléphone 2 (coord. structure)";"Télécopie (coord. structure)";"Adresse e-mail (coord. structure)";"Adresse BAL MSSanté";
"8";"10000034040";"810000034040";"DR";"Docteur";"ACHET-NAIGRE";"GABRIELLE";"10";"Médecin";"C";"Civil";"SM53";"Spécialiste en Médecine Générale";"S";"Spécialité ordinale";"";"";"970112439";"970102000";"CONSEIL DÉPARTEMENTAL DE GUADELOUPE";"";"1970112439";"";"";"";"";"BD";"Boulevard";"DU GOUV. GENERAL FELIX EBOU";"";"97100 BASSE TERRE";"97100";"97105";"Basse-Terre";"";"";"0590997777";"";"0590997776";"";"";
"8";"10002251915";"810002251915";"DR";"Docteur";"DESMOUCELLE";"FREDERIC";"10";"Médecin";"C";"Civil";"SM44";"Radio-diagnostic";"S";"Spécialité ordinale";"53092321800032";"530923218";"";"";"SELARL ALBI IMAGERIE MEDICALE";"";"353092321800032";"CLINIQUE TOULOUSE LAUTREC";"";"2";"";"";"";"RUE JACQUES MONOD";"";"81030 ALBI CEDEX 9";"81030";"81004";"Albi";"99000";"France";"";"";"";"";"desmoucelle.frederic@medecin.oc.mssante.fr";
"8";"10002666252";"810002666252";"DR";"Docteur";"CARNEY";"MARIE-PIERRE";"10";"Médecin";"C";"Civil";"SM44";"Radio-diagnostic";"S";"Spécialité ordinale";"26220009000013";"262200090";"220000012";"220000020";"CENTRE HOSPITALIER YVES LE FOLL";"";"1220000012";"";"";"10";"";"R";"Rue";"MARCEL PROUST";"BP 2367";"22023 ST BRIEUC CEDEX 1";"22023";"22278";"Saint-Brieuc";"";"";"0296017123";"";"0296017111";"direction@ch-stbrieuc.fr";"mariepierre.carney@ch-stbrieuc.mssante.fr";
"8";"10000473602";"810000473602";"DR";"Docteur";"VADUREL";"BERTRAND";"40";"Chirurgien-Dentiste";"C";"Civil";"";"";"";"";"";"";"";"";"Cabinet du Dr VADUREL";"";"410000473602009";"";"";"15";"";"R";"Rue";"HOCHE";"";"80300 ALBERT";"80300";"80016";"Albert";"";"";"";"";"";"";"bertrand.vadurel@chirurgien-dentiste.mssante.fr";
"8";"10005592703";"810005592703";"";"";"MOURADIAN";"WILLIAM";"70";"Masseur-Kinésithérapeute";"C";"Civil";"";"";"";"";"";"";"";"";"MOURADIAN WILLIAM";"Cabinet individuel";"410005592703018";"";"";"8";"BIS";"AV";"Avenue";"AUGUSTE HUDIER";"";"77330 OZOIR LA FERRIERE";"77330";"77350";"Ozoir-la-Ferrière";"99000";"France";"";"";"";"";"";
"8";"10002999026";"810002999026";"DR";"Docteur";"SALOMON";"BERNARD";"10";"Médecin";"C";"Civil";"CEX22";"Gynécologie médicale et obstétrique";"CEX";"Compétence Exclusive";"";"";"";"";"";"";"";"";"";"";"";"";"";"";"";"";"";"";"";"";"";"";"";"";"";"";
"8";"10003268231";"810003268231";"DR";"Docteur";"SERFATI";"ARMAND";"10";"Médecin";"C";"Civil";"SM54";"Médecine Générale";"S";"Spécialité ordinale";"";"";"";"";"CABINET DU DR ARMAND SERFATI";"";"410003268231000";"";"";"175";"";"";"";"CHEMIN DE L ANCIENNE GARE";"";"06640 ST JEANNET";"06640";"06122";"Saint-Jeannet";"99000";"France";"";"";"";"";"armand.serfati@medecin.mssante.fr";
"8";"10005486898";"810005486898";"";"";"AMEILLE";"MARC";"70";"Masseur-Kinésithérapeute";"C";"Civil";"";"";"";"";"97020107500011";"970201075";"910300235";"310021282";"CLINIQUE KORIAN LA MARETTE";"";"1910300235";"";"";"";"";"R";"Rue";"DU CREUX DE LA BORNE";"";"91690 SACLAS";"91690";"91533";"Saclas";"";"";"0160807300";"";"0164956702";"f.amara@groupe-korian.com";"";
"8";"10000127737";"810000127737";"";"";"GORUCHON";"SANDRINE";"50";"Sage-Femme";"C";"Civil";"";"";"";"";"26910001200013";"269100012";"910000272";"910110014";"CH D ARPAJON";"";"1910000272";"";"";"18";"";"AV";"Avenue";"DE  VERDUN";"";"91294 ARPAJON CEDEX";"91294";"91021";"Arpajon";"";"";"0164929292";"";"0164929128";"direction@ch-arpajon.fr";"";
"8";"10001157600";"810001157600";"DR";"Docteur";"BRUDER";"MARIE-CLAUDE";"10";"Médecin";"C";"Civil";"SM26";"Qualifié en Médecine Générale";"S";"Spécialité ordinale";"80833267005418";"808332670";"";"";"SNCF";"SNCF";"380833267005418";"SNCF";"";"4";"";"";"";"RUE ANDRE CAMPRA";"CS 20012";"93212 LA PLAINE ST DENIS CEDEX";"93212";"93066";"Saint-Denis";"99000";"France";"";"";"";"";"";
"8";"10100744977";"810100744977";"DR";"Docteur";"PECQUEUR";"Caroline";"21";"Pharmacien";"C";"Civil";"";"";"";"";"";"";"620007146";"620007120";"PHARMACIE VISEUR";"PHARMACIE VISEUR";"1620007146";"";"";"410";"";"BD";"Boulevard";"RAYMOND POINCARE";"";"62400 BETHUNE";"62400";"62119";"Béthune";"99000";"France";"";"";"";"";"";
"8";"10002854072";"810002854072";"DR";"Docteur";"MINGUEZ";"SERGE";"10";"Médecin";"C";"Civil";"SM42";"Psychiatrie";"S";"Spécialité ordinale";"33435347100603";"334353471";"840002380";"130804032";"CAMSP ARI";"";"1840002380";"";"";"28";"";"R";"Rue";"DE BELGIQUE";"ZAC DU COUDOULE";"84100 ORANGE";"84100";"84087";"Orange";"";"";"0490343939";"";"";"d-lefevre@ari.asso.fr";"";
"8";"10100836815";"810100836815";"DR";"Docteur";"MAY";"ALEXANDRE";"10";"Médecin";"C";"Civil";"SM12";"Chirurgie urologique";"S";"Spécialité ordinale";"83422675500017";"834226755";"";"";"DR ALEXANDRE MAY";"";"383422675500017";"";"";"17";"";"";"";"AV DU PR ALEXANDRE MINKOWSKI";"";"37170 CHAMBRAY LES TOURS";"37170";"37050";"Chambray-lès-Tours";"99000";"France";"";"";"";"";"a.may@chu-tours.mssante.fr";
"8";"10002393931";"810002393931";"DR";"Docteur";"DESANDES";"ROXANE";"10";"Médecin";"C";"Civil";"SM40";"Pédiatrie";"S";"Spécialité ordinale";"";"";"";"";"CABINET DU DR ROXANE DESANDES";"CABINET DU DR ROXANE DESANDES";"410002393931005";"";"SCM MAISON DE L'ENFANT";"4";"";"";"";"RUE PARMENTIER";"";"54270 ESSEY LES NANCY";"54270";"54184";"Essey-lès-Nancy";"99000";"France";"03.83.21.45.76";"";"";"";"";
"8";"10002937307";"810002937307";"DR";"Docteur";"CORVAISIER";"JEAN-MICHEL";"10";"Médecin";"C";"Civil";"SM02";"Anesthesie-réanimation";"S";"Spécialité ordinale";"75079311900025";"750793119";"";"";"SELARL ARELIM";"";"375079311900025";"CLINIQUE DES EMAILLEURS";"";"1";"";"";"";"RUE VICTOR SCHOELCHER";"";"87000 LIMOGES";"87000";"87085";"Limoges";"99000";"France";"";"";"";"";"";
"8";"10004006002";"810004006002";"DR";"Docteur";"LANSIER";"CYRILE";"10";"Médecin";"C";"Civil";"SM42";"Psychiatrie";"S";"Spécialité ordinale";"";"";"";"";"CABINET DU DR CYRILE LANSIER";"CABINET DU DR CYRILE LANSIER";"410004006002000";"";"";"12";"";"";"";"RUE LERICHE";"";"75015 PARIS";"75015";"75056";"Paris";"99000";"France";"01 56 08 00 66";"";"";"";"cyrile.lansier@medecin.mssante.fr";
"8";"10100482057";"810100482057";"";"";"BROUILLARD";"MAELLE";"50";"Sage-Femme";"C";"Civil";"";"";"";"";"26430284500013";"264302845";"430000117";"430000018";"CENTRE HOSPITALIER LE PUY - EMILE ROUX";"";"1430000117";"";"";"12";"";"BD";"Boulevard";"DU DR CHANTEMESSE";"BP 20352";"43012 LE PUY EN VELAY CEDEX";"43012";"43157";"Le Puy-en-Velay";"";"";"0471043210";"";"0471043370";"direction@ch-lepuy.fr";"";
"8";"10005989990";"810005989990";"";"";"MERCEROLLE";"ALISON";"70";"Masseur-Kinésithérapeute";"C";"Civil";"";"";"";"";"";"";"";"";"LAHAYE NADEGE";"CABINET DE GROUPE";"410005417349005";"";"";"4";"";"R";"Rue";"DU DOCTEUR BARBARY";"";"49120 CHEMILLE";"49120";"49092";"Chemillé-en-Anjou";"99000";"France";"0241303887";"";"";"";"";
"8";"10003971701";"810003971701";"DR";"Docteur";"MEBAZAA-BAZILLE";"ANNE";"10";"Médecin";"C";"Civil";"SM44";"Radio-diagnostic";"S";"Spécialité ordinale";"77566388300012";"775663883";"750300097";"750813305";"INSTITUT ARTHUR VERNES";"";"1750300097";"";"";"36";"";"R";"Rue";"D ASSAS";"";"75006 PARIS";"75006";"75106";"Paris 6e  Arrondissement";"";"";"0144395300";"";"0142220546";"crauche@institut-vernes.fr";"mss_amebazaa@hpsj.mssante.fr";
"8";"10001104537";"810001104537";"DR";"Docteur";"VENANT-NGUYEN BINH";"THANH-NGA";"21";"Pharmacien";"C";"Civil";"";"";"";"";"";"";"590022786";"590022760";"PHARMACIE MEURILLON - VENANT";"SELARL PHARMACIE MEURILLON - VENANT";"1590022786";"";"";"5";"";"R";"Rue";"DU GENERAL LECLERC";"";"59120 LOOS";"59120";"59360";"Loos";"99000";"France";"0320075129";"";"";"";"thanh-nga.venant-nguyenbinh@pharmacien.mssante.fr";
"8";"10101009875";"810101009875";"";"";"BESSON";"HELENE";"50";"Sage-Femme";"C";"Civil";"";"";"";"";"26750045200383";"267500452";"920100047";"750712184";"HU PARIS NORD SITE LOUIS MOURIER APHP";"";"1920100047";"";"";"178";"";"R";"Rue";"DES RENOUILLIERS";"";"92701 COLOMBES CEDEX";"92701";"92025";"Colombes";"";"";"0147606162";"";"0147606275";"guillaume.caro@aphp.fr";"";
"8";"10003106225";"810003106225";"DR";"Docteur";"SIVIER";"VINCENT";"10";"Médecin";"C";"Civil";"SM53";"Spécialiste en Médecine Générale";"S";"Spécialité ordinale";"";"";"";"";"CABINET DU DR VINCENT SIVIER";"CABINET DU DR VINCENT SIVIER";"410003106225016";"";"";"22";"";"";"";"AVENUE DU GENERAL GOURAUD";"";"42380 ST BONNET LE CHATEAU";"42380";"42204";"Saint-Bonnet-le-Château";"99000";"France";"04.77.50.75.50";"";"04.77.50.75.51";"";"vincent.sivier@aura.mssante.fr";
"8";"10100077832";"810100077832";"DR";"Docteur";"RAFAT";"CEDRIC";"10";"Médecin";"C";"Civil";"SM30";"Néphrologie";"S";"Spécialité ordinale";"";"";"";"";"";"";"";"";"";"";"";"";"";"";"";"";"";"";"";"";"";"";"";"";"";"cedric.rafat@aphp.mssante.fr";
"8";"10002162062";"810002162062";"DR";"Docteur";"LEBAS";"FRANCOISE";"10";"Médecin";"C";"Civil";"SM44";"Radio-diagnostic";"S";"Spécialité ordinale";"";"";"";"";"";"";"";"";"";"";"";"";"";"";"";"";"";"";"";"";"";"";"";"";"";"";
"8";"10101096625";"810101096625";"";"";"HARBON";"ALEXANDRE";"10";"Médecin";"E";"Etudiant";"";"";"";"";"";"";"";"";"";"";"";"";"";"";"";"";"";"";"";"";"";"";"";"";"";"";"";"";"";"";
"8";"10005582431";"810005582431";"";"";"JACQUET";"VALERIE";"70";"Masseur-Kinésithérapeute";"C";"Civil";"";"";"";"";"";"";"";"";"JACQUET VALERIE";"CABINET INDIVIDUEL";"410005582431000";"";"";"19";"";"R";"Rue";"DES MASCAREIGNES";"";"97436 ST LEU";"97436";"97413";"Saint-Leu";"99000";"France";"02 62 34 99 58";"";"";"jacquet.e@wanadoo.fr";"";
"8";"10001022374";"810001022374";"PR";"Professeur";"DE ZIEGLER";"DOMINIQUE";"10";"Médecin";"C";"Civil";"SM20";"Gynécologie-obstétrique";"S";"Spécialité ordinale";"40845729900019";"408457299";"920000650";"920150059";"HOPITAL FOCH";"";"1920000650";"";"";"40";"";"R";"Rue";"WORTH";"BP 36";"92151 SURESNES CEDEX";"92151";"92073";"Suresnes";"";"";"0826207220";"";"0146252094";"r.sene@hopital-foch.org";"";
"8";"10001319754";"810001319754";"DR";"Docteur";"LALISSE";"MARC";"10";"Médecin";"C";"Civil";"SM32";"Neurologie";"S";"Spécialité ordinale";"";"";"";"";"CABINET DU DR MARC LALISSE";"CABINET DU DR MARC LALISSE";"410001319754004";"";"";"3";"";"";"";"PASSAGE DES FAUCONNIERS";"";"78800 HOUILLES";"78800";"78311";"Houilles";"99000";"France";"";"";"";"";"";
"8";"10002390606";"810002390606";"DR";"Docteur";"VASSART-GOTTLICH";"PATRICIA";"10";"Médecin";"C";"Civil";"SM18";"Gériatrie";"S";"Spécialité ordinale";"20003308200021";"200033082";"880000070";"880007299";"CHI DE L'OUEST VOSGIEN SITE DE VITTEL";"";"1880000070";"";"";"191";"";"AV";"Avenue";"MAURICE BARRES";"BP 129";"88804 VITTEL CEDEX";"88804";"88516";"Vittel";"";"";"0329058888";"";"0329058815";"sdirection@ch-vittel.fr";"p.vassart@ch-ouestvosgien.mssante.fr";
"8";"10100430528";"810100430528";"DR";"Docteur";"LEROY";"THIBAUT";"10";"Médecin";"C";"Civil";"SM38";"Ophtalmologie";"S";"Spécialité ordinale";"40765808700033";"407658087";"740780424";"740000120";"CLINIQUE GENERALE";"";"1740780424";"";"";"4";"";"CHE";"Chemin";"TOUR LA REINE";"";"74000 ANNECY";"74000";"74010";"Annecy";"";"";"0450330492";"";"0450330488";"martine.burnier@clinique-generale.fr";"";
"8";"10000513647";"810000513647";"DR";"Docteur";"L'ARGENTON";"YVES";"10";"Médecin";"C";"Civil";"SM25";"Médecine du travail";"S";"Spécialité ordinale";"";"";"";"";"S.M.S.T.";"";"10000000502139";"";"";"";"";"";"";"48 RUE DE CHARENTON";"";"75112 PARIS CEDEX 02";"75112";"75056";"Paris";"99000";"France";"0144678430";"";"";"";"";
"8";"10000808146";"810000808146";"DR";"Docteur";"DELEAGE-D'HUY-RICQUIER";"BERNADETTE";"10";"Médecin";"C";"Civil";"SM40";"Pédiatrie";"S";"Spécialité ordinale";"32384135300317";"323841353";"750826968";"750720856";"CTRE EXAMENS SANTE AMELOT";"";"1750826968";"";"";"96";"";"R";"Rue";"AMELOT";"";"75011 PARIS";"75011";"75111";"Paris 11e  Arrondissement";"";"";"0149235900";"";"";"";"";
"8";"10001616779";"810001616779";"";"";"GIRARD-PLANTE";"BERNADETTE";"21";"Pharmacien";"C";"Civil";"";"";"";"";"";"";"310007141";"310007133";"PHARMACIE GIRARD-PLANTE  -  VIEITEZ";"SELARL PHARMACIE DES ARTS";"1310007141";"";"";"64";"";"ESP";"Esplanade";"BELLECOURT";"";"31660 BESSIERES";"31660";"31066";"Bessières";"99000";"France";"0561840478";"";"";"";"";
"8";"10003734752";"810003734752";"DR";"Docteur";"DURAND";"THIERRY";"10";"Médecin";"C";"Civil";"SM53";"Spécialiste en Médecine Générale";"S";"Spécialité ordinale";"";"";"";"";"CABINET DU DR THIERRY DURAND";"CABINET DU DR THIERRY DURAND";"410003734752001";"";"";"20";"";"";"";"R H BENEDICT DE SAUSSURE";"";"94000 CRETEIL";"94000";"94028";"Créteil";"99000";"France";"01 56 71 10 60";"";"";"";"thierry.durand@medecin.mssante.fr";
"8";"10002544061";"810002544061";"DR";"Docteur";"COULIS";"THIERRY";"10";"Médecin";"C";"Civil";"SM53";"Spécialiste en Médecine Générale";"S";"Spécialité ordinale";"";"";"";"";"CABINET DU DR THIERRY COULIS";"CABINET DU DR THIERRY COULIS";"410002544061017";"";"";"15";"";"";"";"AVENUE DE LA CHESNAIE";"";"49130 LES PONTS DE CE";"49130";"49246";"Les Ponts-de-Cé";"99000";"France";"02.41.44.25.44";"";"0981400632";"";"thierry.coulis@medecin.mssante.fr";
"8";"10004044789";"810004044789";"";"";"DIDIERLAURENT";"ADELINE";"50";"Sage-Femme";"C";"Civil";"";"";"";"";"30163760900050";"301637609";"880788591";"880780150";"POLYCLINIQUE LA LIGNE BLEUE";"";"1880788591";"";"";"9";"";"AV";"Avenue";"DU ROSE POIRIER";"BP 1079";"88060 EPINAL CEDEX 9";"88060";"88160";"Épinal";"";"";"0329686060";"";"0329686044";"sec.direction@epinal-sante.com";"";
"8";"10005836415";"810005836415";"";"";"LOUBIERE";"DAVID";"70";"Masseur-Kinésithérapeute";"C";"Civil";"";"";"";"";"";"";"";"";"LOUBIERE DAVID";"CABINET DE GROUPE";"410005836415007";"";"";"8";"";"R";"Rue";"DOCTEUR FAYOLLAT";"";"38400 ST MARTIN D HERES";"38400";"38421";"Saint-Martin-d'Hères";"99000";"France";"";"";"";"DAVID.LOUBIERE@FREE.FR";"david.loubiere@aura.mssante.fr";
"8";"10001571404";"810001571404";"DR";"Docteur";"CASTREC-CARPO";"ANNIE";"10";"Médecin";"C";"Civil";"SM44";"Radio-diagnostic";"S";"Spécialité ordinale";"";"";"";"";"";"";"";"";"";"";"";"";"";"";"";"";"";"";"";"";"";"";"";"";"";"";
"8";"10101224771";"810101224771";"";"";"PALMATO";"CELINE";"10";"Médecin";"E";"Etudiant";"";"";"";"";"";"";"";"";"";"";"";"";"";"";"";"";"";"";"";"";"";"";"";"";"";"";"";"";"";"";
"8";"10005182505";"810005182505";"DR";"Docteur";"DESTRO";"MARINA";"10";"Médecin";"C";"Civil";"SM02";"Anesthesie-réanimation";"S";"Spécialité ordinale";"";"";"";"";"";"";"";"";"";"";"";"";"";"";"";"";"";"";"";"";"";"";"";"";"";"";
"8";"10100568236";"810100568236";"DR";"Docteur";"GONTHARET";"MARIE-HELENE";"10";"Médecin";"C";"Civil";"SM53";"Spécialiste en Médecine Générale";"S";"Spécialité ordinale";"";"";"";"";"CABINET DU DR MARIE-HELENE GONTHARET";"CABINET DU DR MARIE-HELENE GONTHARET";"410100568236018";"";"";"188";"";"";"";"CHEMIN CLARIN MUSTAD";"";"76480 DUCLAIR";"76480";"76222";"Duclair";"99000";"France";"02 35 37 50 50";"";"";"";"marie-helene.gontharet@medecin.mssante.fr";
"8";"10100870129";"810100870129";"DR";"Docteur";"STEFANUTIU";"LARISA";"40";"Chirurgien-Dentiste";"C";"Civil";"";"";"";"";"";"";"";"";"Cabinet du Dr STEFANUTIU";"";"410100870129000";"";"";"72";"";"R";"Rue";"DES GRANGES";"";"25000 BESANCON";"25000";"25056";"Besançon";"";"";"";"";"";"";"";
"8";"10005728646";"810005728646";"";"";"ESTOUP";"PHILIPPE";"70";"Masseur-Kinésithérapeute";"C";"Civil";"";"";"";"";"";"";"";"";"ESTOUP PHILIPPE";"CABINET INDIVIDUEL";"410005728646008";"";"";"47";"";"R";"Rue";"BAYARD";"";"31000 TOULOUSE";"31000";"31555";"Toulouse";"99000";"France";"0561619200";"0664866800";"";"";"";
"8";"10003117313";"810003117313";"DR";"Docteur";"MATUSSIERE";"YANN";"10";"Médecin";"C";"Civil";"SM26";"Qualifié en Médecine Générale";"S";"Spécialité ordinale";"82299990000019";"822999900";"";"";"CABINET DU DOCTEUR YANN MATUSSIERE";"";"382299990000019";"";"";"29";"";"";"";"AVENUE DES SOURCES";"";"69009 LYON";"69009";"69123";"Lyon";"99000";"France";"";"";"";"";"yann.matussiere@aura.mssante.fr";
"8";"10000972199";"810000972199";"DR";"Docteur";"LANTRAN";"LAURENCE";"10";"Médecin";"C";"Civil";"SM53";"Spécialiste en Médecine Générale";"S";"Spécialité ordinale";"";"";"";"";"CABINET DU DR LAURENCE LANTRAN";"CABINET DU DR LAURENCE LANTRAN";"410000972199002";"";"";"23";"";"";"";"RUE EDITH CAVELL";"";"92400 COURBEVOIE";"92400";"92026";"Courbevoie";"99000";"France";"0143333359";"";"";"";"";
"8";"10002146107";"810002146107";"DR";"Docteur";"GAVANOU-DANIEL";"FRANCOISE";"10";"Médecin";"C";"Civil";"SM53";"Spécialiste en Médecine Générale";"S";"Spécialité ordinale";"";"";"";"";"CABINET DU DR FRANCOISE GAVANOU-DANIEL";"CABINET DU DR FRANCOISE GAVANOU-DANIEL";"410002146107002";"";"";"3";"BIS";"";"";"RUE DES CARONS";"";"21380 MESSIGNY ET VANTOUX";"21380";"21408";"Messigny-et-Vantoux";"99000";"France";"03 80 35 41 35";"";"";"";"";
"8";"10005238752";"810005238752";"";"";"MULNET";"ANNE-CECILE";"70";"Masseur-Kinésithérapeute";"C";"Civil";"";"";"";"";"26330582300035";"263305823";"330781360";"330781196";"GROUPE HOSPITALIER PELLEGRIN - CHU";"";"1330781360";"";"";"";"";"PL";"Place";"AMELIE RABA LEON";"";"33076 BORDEAUX CEDEX";"33076";"33063";"Bordeaux";"";"";"0556795679";"";"0556372442";"";"";
"8";"10002225059";"810002225059";"DR";"Docteur";"MESSIN";"REMI";"10";"Médecin";"C";"Civil";"SM26";"Qualifié en Médecine Générale";"S";"Spécialité ordinale";"26590702200015";"265907022";"590001442";"590784245";"CH ZUYDCOOTE";"";"1590001442";"";"";"";"";"";"";"";"";"59123 ZUYDCOOTE";"59123";"59668";"Zuydcoote";"";"";"0328262020";"";"0328262019";"m.dereuddre@ch-zuydcoote.fr";"";
"8";"10002832169";"810002832169";"DR";"Docteur";"ROCHET";"NICOLE";"10";"Médecin";"C";"Civil";"SM48";"Rhumatologie";"S";"Spécialité ordinale";"";"";"";"";"";"";"";"";"";"";"";"";"";"";"";"";"";"";"";"";"";"";"";"";"";"";
"8";"10101288941";"810101288941";"";"";"RYCKEBOER";"DIANE";"70";"Masseur-Kinésithérapeute";"C";"Civil";"";"";"";"";"20005535800010";"200055358";"860000223";"860014208";"CHU LA MILETRIE";"";"1860000223";"";"";"2";"";"R";"Rue";"DE LA MILETRIE";"CS 90577";"86021 POITIERS CEDEX";"86021";"86194";"Poitiers";"";"";"0549444444";"";"0549443980";"";"";
"8";"10002406915";"810002406915";"DR";"Docteur";"DE STEPHANIS";"DOMINIQUE";"10";"Médecin";"C";"Civil";"SM53";"Spécialiste en Médecine Générale";"S";"Spécialité ordinale";"";"";"";"";"CABINET DU DR DOMINIQUE DE STEPHANIS";"CABINET DU DR DOMINIQUE DE STEPHANIS";"410002406915003";"";"";"6";"";"";"";"AVENUE DE METZ";"";"57290 FAMECK";"57290";"57206";"Fameck";"99000";"France";"03 82 52 86 66 ";"";"";"";"";
"8";"10001772697";"810001772697";"DR";"Docteur";"DEHAUT";"JEAN-CLAUDE";"10";"Médecin";"C";"Civil";"SM04";"Cardiologie et maladies vasculaires";"S";"Spécialité ordinale";"26020871500011";"260208715";"020000394";"020000253";"CH LAON";"";"1020000394";"";"";"33";"";"R";"Rue";"MARCELIN BERTHELOT";"";"02001 LAON CEDEX";"02001";"02408";"Laon";"";"";"0323243333";"";"0323243360";"secret.direction@ch-laon.fr";"jean-claude.dehaut@ch-laon.mssante.fr";
"8";"10003440376";"810003440376";"DR";"Docteur";"MOHAMED BAKIR";"LAKHDAR";"10";"Médecin";"C";"Civil";"SM44";"Radio-diagnostic";"S";"Spécialité ordinale";"26690023200080";"266900232";"690000625";"690782271";"CENTRE HOSPITALIER DE TARARE";"";"1690000625";"";"";"6";"";"BD";"Boulevard";"GARIBALDI";"";"69170 TARARE";"69170";"69243";"Tarare";"";"";"0474054646";"";"0474053364";"direction.cht@lhopitalnordouest.fr";"";
"8";"10004836333";"810004836333";"DR";"Docteur";"GUENEL";"PASCAL";"10";"Médecin";"C";"Civil";"SM49";"Santé publique et médecine sociale";"S";"Spécialité ordinale";"18003604800015";"180036048";"";"";"INSTITUT NATIONAL DE LA SANTE ET DE LA RECHERCHE MEDICALE";"INSERM";"318003604800015";"INSERM";"";"101";"";"";"";"RUE DE TOLBIAC";"";"75654 PARIS CEDEX 13";"75654";"75056";"Paris";"99000";"France";"";"";"";"";"";
"8";"10001687085";"810001687085";"DR";"Docteur";"CHATELET-LAFAYE";"INGRID";"21";"Pharmacien";"C";"Civil";"";"";"";"";"";"";"690011150";"690011143";"PHARMACIE GONCALVES";"PHARMACIE PRINCIPALE";"1690011150";"";"";"3";"";"R";"Rue";"VICTOR HUGO";"";"69250 NEUVILLE-SUR-SAÔNE";"69250";"69143";"Neuville-sur-Saône";"99000";"France";"0478913034";"";"0478912893";"";"";
"8";"10002915634";"810002915634";"DR";"Docteur";"CHARPENTIER";"SABINE";"10";"Médecin";"C";"Civil";"SM40";"Pédiatrie";"S";"Spécialité ordinale";"26820007800015";"268200078";"820000032";"820000016";"CH DE MONTAUBAN";"";"1820000032";"";"";"100";"";"R";"Rue";"LEON CLADEL";"BP 765";"82013 MONTAUBAN CEDEX";"82013";"82121";"Montauban";"";"";"0563928282";"";"0563928010";"direction@ch-montauban.fr";"s.charpentier@ch-montauban.mssante.fr";
"8";"10003411138";"810003411138";"DR";"Docteur";"HEURTIN";"MAY";"10";"Médecin";"C";"Civil";"SM04";"Cardiologie et maladies vasculaires";"S";"Spécialité ordinale";"";"";"";"";"CABINET DU DR MAY HEURTIN";"CABINET DU DR MAY HEURTIN";"410003411138003";"";"";"291";"";"";"";"AVENUE VICTOR HUGO";"";"84200 CARPENTRAS";"84200";"84031";"Carpentras";"99000";"France";"04.90.63.03.37";"";"04.90.60.93.15";"";"";
"8";"10101029980";"810101029980";"";"";"GRICHE";"MAURANE";"70";"Masseur-Kinésithérapeute";"C";"Civil";"";"";"";"";"";"";"";"";"PETITJEAN SANDRINE";"CABINET DE GROUPE";"410005783344002";"SCM PARAMEDICALE LA SEREINE";"";"1211";"";"RTE";"Route";"NATIONALE";"";"01120 LA BOISSE";"01120";"01049";"La Boisse";"99000";"France";"0478062904";"0688114579";"";"";"";
"8";"10002771136";"810002771136";"DR";"Docteur";"GARCIN";"CAMILLE";"10";"Médecin";"C";"Civil";"SM38";"Ophtalmologie";"S";"Spécialité ordinale";"";"";"";"";"CABINET DU DR CAMILLE GARCIN";"CABINET DU DR CAMILLE GARCIN";"410002771136003";"";"";"75";"";"";"";"RUE EDOUARD HERRIOT";"";"33310 LORMONT";"33310";"33249";"Lormont";"99000";"France";"05.56.74.29.56";"";"";"";"";
"8";"10004062146";"810004062146";"DR";"Docteur";"BIOT-RAZOUS";"EMMANUELLE";"21";"Pharmacien";"C";"Civil";"";"";"";"";"34950537000024";"349505370";"";"";"SANOFI PASTEUR ";"";"334950537000024";"";"";"1541";"";"AV";"Avenue";"MARCEL MERIEUX";"";"69280 MARCY-L'ETOILE";"69280";"69127";"Marcy-l'Étoile";"99000";"France";"";"";"";"";"";
"8";"10002856861";"810002856861";"DR";"Docteur";"LEVY";"JOELLE";"10";"Médecin";"C";"Civil";"SM53";"Spécialiste en Médecine Générale";"S";"Spécialité ordinale";"";"";"";"";"";"";"";"";"";"";"";"";"";"";"";"";"";"";"";"";"";"";"";"";"";"";
"8";"10100188712";"810100188712";"DR";"Docteur";"BRESSON";"JULIE";"10";"Médecin";"C";"Civil";"SM02";"Anesthesie-réanimation";"S";"Spécialité ordinale";"40845729900019";"408457299";"920000650";"920150059";"HOPITAL FOCH";"";"1920000650";"";"";"40";"";"R";"Rue";"WORTH";"BP 36";"92151 SURESNES CEDEX";"92151";"92073";"Suresnes";"";"";"0826207220";"";"0146252094";"r.sene@hopital-foch.org";"";
"8";"10101055381";"810101055381";"";"";"ORCEL";"LAURA";"70";"Masseur-Kinésithérapeute";"C";"Civil";"";"";"";"";"";"";"";"";"ORCEL LAURA";"Cabinet individuel";"410101055381002";"";"";"5";"";"R";"Rue";"DE VILLEFRANCHE";"";"34090 MONTPELLIER";"34090";"34172";"Montpellier";"99000";"France";"";"0677506774";"";"orcel.laura@gmail.com";"";
"8";"10001762458";"810001762458";"DR";"Docteur";"JACQUET";"RENE";"10";"Médecin";"C";"Civil";"SM53";"Spécialiste en Médecine Générale";"S";"Spécialité ordinale";"";"";"";"";"CABINET DU DR RENE JACQUET";"CABINET DU DR RENE JACQUET";"410001762458012";"";"";"14";"TER";"";"";"RUE ERNEST LAVISSE";"";"02200 SOISSONS";"02200";"02722";"Soissons";"99000";"France";"03.23.53.45.96";"";"03.23.59.70.97";"";"";
"8";"10101266061";"810101266061";"";"";"HESTIN - CHAUWIN";"Marianne";"70";"Masseur-Kinésithérapeute";"M";"Militaire";"";"";"";"";"15100002300433";"151000023";"690780093";"750810814";"HIA DESGENETTES";"";"1690780093";"";"";"108";"";"BD";"Boulevard";"PINEL";"";"69003 LYON";"69003";"69383";"Lyon 3e  Arrondissement";"";"";"0472366000";"";"";"";"marianne.hestin@ssa.mssante.fr";
"8";"10000872647";"810000872647";"DR";"Docteur";"MENINI";"PATRICIA";"40";"Chirurgien-Dentiste";"C";"Civil";"";"";"";"";"";"";"";"";"Cabinet du Dr MENINI";"";"410000872647019";"CLINIQUE NOUVELLE DE MONTBRISON28";"";"28";"";"RTE";"Route";"NOUVELLE";"";"42600 MONTBRISON";"42600";"42147";"Montbrison";"";"";"";"";"";"";"";
"8";"10101214368";"810101214368";"";"";"HUBSCH";"EMELINE";"10";"Médecin";"E";"Etudiant";"";"";"";"";"";"";"";"";"";"";"";"";"";"";"";"";"";"";"";"";"";"";"";"";"";"";"";"";"";"";
"8";"10000833201";"810000833201";"DR";"Docteur";"BENAZRA";"MICHEL";"10";"Médecin";"C";"Civil";"SM24";"Gastro-entérologie et hépatologie";"S";"Spécialité ordinale";"26750045201191";"267500452";"750803447";"750712184";"HU PARIS OUEST SITE G POMPIDOU APHP";"";"1750803447";"";"";"20";"";"R";"Rue";"LEBLANC";"";"75908 PARIS CEDEX 15";"75908";"75115";"Paris 15e  Arrondissement";"";"";"0156092000";"";"0156092119";"";"m.benazra@ramsaygds.mssante.fr";
"8";"10003044608";"810003044608";"DR";"Docteur";"RIBES";"FABIENNE";"10";"Médecin";"C";"Civil";"SM26";"Qualifié en Médecine Générale";"S";"Spécialité ordinale";"";"";"";"";"CABINET DU DR FABIENNE RIBES";"CABINET DU DR FABIENNE RIBES";"410003044608000";"";"";"5";"";"";"";"RUE GROLEE";"";"69002 LYON";"69002";"69123";"Lyon";"99000";"France";"04 78 53 75 07";"";"";"";"";
"8";"10003243267";"810003243267";"DR";"Docteur";"MECHULAM";"JOELLE";"10";"Médecin";"C";"Civil";"SM26";"Qualifié en Médecine Générale";"S";"Spécialité ordinale";"26340018600031";"263400186";"340017136";"340788074";"EHPAD VIA DOMITIA";"";"1340017136";"";"";"";"";"ALL";"Allee";"DES MEULIERES";"BP 35";"34170 CASTELNAU LE LEZ";"34170";"34057";"Castelnau-le-Lez";"";"";"0499233770";"";"0499233779";"regineanthime@castelnau-le-lez.fr";"";
"8";"10001481950";"810001481950";"DR";"Docteur";"TRAN";"MY-DUNG";"10";"Médecin";"C";"Civil";"SM15";"Dermatologie et vénéréologie";"S";"Spécialité ordinale";"";"";"";"";"CABINET DU DR MY-DUNG TRAN";"";"410001481950000";"";"";"17";"";"";"";"RUE DE L EGLISE";"";"92160 ANTONY";"92160";"92002";"Antony";"99000";"France";"";"";"";"";"my-dung.tran@medecin.mssante.fr";
"8";"10004053590";"810004053590";"";"";"ALLINCKX";"ANGELIQUE";"50";"Sage-Femme";"C";"Civil";"";"";"";"";"26620932900017";"266209329";"620000257";"620100685";"CH LENS";"";"1620000257";"";"";"99";"";"RTE";"Route";"DE LA BASSEE";"SP 8";"62307 LENS CEDEX";"62307";"62498";"Lens";"";"";"0321691200";"";"0321691657";"mebouviez@ch-lens.fr";"";
"8";"10005366041";"810005366041";"";"";"DUPAQUIER";"RICHARD";"70";"Masseur-Kinésithérapeute";"C";"Civil";"";"";"";"";"";"";"";"";"DUPAQUIER RICHARD";"CABINET INDIVIDUEL";"410005366041009";"";"LE CAPITOLE";"3";"";"AV";"Avenue";"ARMAND TOULET";"";"64600 ANGLET";"64600";"64024";"Anglet";"99000";"France";"0559529022";"";"";"";"";
"8";"10001258721";"810001258721";"DR";"Docteur";"BAUFRETON";"CHRISTOPHE";"10";"Médecin";"C";"Civil";"SM11";"Chirurgie thoracique et cardio-vasculaire";"S";"Spécialité ordinale";"";"";"";"";"CABINET PRIVE DU DR CHRISTOPHE BAUFRETON";"CABINET PRIVE DU DR CHRISTOPHE BAUFRETON";"410001258721014";"CHU D' ANGERS :SITE LARREY";"";"4";"";"";"";"RUE LARREY";"";"49933 ANGERS CEDEX 9";"49933";"49007";"Angers";"99000";"France";"";"";"";"";"";
"8";"10002511490";"810002511490";"DR";"Docteur";"MUZELLEC";"ARIEL";"10";"Médecin";"C";"Civil";"SM42";"Psychiatrie";"S";"Spécialité ordinale";"";"";"";"";"";"";"";"";"";"";"";"";"";"";"";"";"";"";"";"";"";"";"";"";"";"";
"8";"10001925717";"810001925717";"DR";"Docteur";"HOUDENT";"GERARD";"10";"Médecin";"C";"Civil";"SM27";"Médecine interne";"S";"Spécialité ordinale";"";"";"";"";"";"";"";"";"";"";"";"";"";"";"";"";"";"";"";"";"";"";"";"";"";"";
"8";"10002829272";"810002829272";"DR";"Docteur";"BRINTET";"ISABELLE";"10";"Médecin";"C";"Civil";"SM40";"Pédiatrie";"S";"Spécialité ordinale";"";"";"";"";"CABINET DU DR ISABELLE BOUFFARD-FONTANET";"CABINET DU DR ISABELLE BOUFFARD-FONTANET";"410002775913001";"";"";"72";"";"";"";"AVENUE DE BRANNE";"";"33370 TRESSES";"33370";"33535";"Tresses";"99000";"France";"57.97.05.05";"";"";"";"";
"8";"10004980099";"810004980099";"DR";"Docteur";"PLANCADE";"DAVID";"10";"Médecin";"M";"Militaire";"SM54";"Médecine Générale";"S";"Spécialité ordinale";"15100002300219";"151000023";"570000596";"750810814";"HIA LEGOUEST";"";"1570000596";"";"";"27";"";"AV";"Avenue";"DE PLANTIERES";"";"57000 METZ";"57000";"57463";"Metz";"";"";"0387564646";"";"";"secretariat.chefferie@hia-legouest.fr";"";
"8";"10003420790";"810003420790";"DR";"Docteur";"AMAR";"ELISABETH";"10";"Médecin";"C";"Civil";"SM10";"Chirurgie plastique reconstructrice et esthétique";"S";"Spécialité ordinale";"05580783800028";"055807838";"130783723";"130001456";"CLINIQUE JUGE";"";"1130783723";"";"";"116";"";"R";"Rue";"JEAN MERMOZ";"";"13008 MARSEILLE";"13008";"13208";"Marseille 8e  Arrondissement";"";"";"0826207878";"";"0491234484";"contact@clinique-juge.com";"";
"8";"10100032258";"810100032258";"DR";"Docteur";"BARAER-GUEMACHE";"REBIHA";"10";"Médecin";"C";"Civil";"SM53";"Spécialiste en Médecine Générale";"S";"Spécialité ordinale";"20004069900015";"200040699";"860000025";"860013382";"GH NORD-VIENNE - SITE DE CHATELLERAULT";"";"1860000025";"";"";"1";"";"R";"Rue";"DU DOCTEUR LUC MONTAGNIER";"CS 60669";"86106 CHATELLERAULT CEDEX";"86106";"86066";"Châtellerault";"";"";"0549029090";"";"0549029091";"direction@ghnv.fr";"rebiha.guemache@ghnv.mssante.fr";
"8";"10001748804";"810001748804";"DR";"Docteur";"LAPLANCHE";"DAVID";"10";"Médecin";"C";"Civil";"SM26";"Qualifié en Médecine Générale";"S";"Spécialité ordinale";"43387364300020";"433873643";"100008325";"250017290";"EHPAD KORIAN PASTORIA";"";"1100008325";"";"";"39";"";"AV";"Avenue";"PASTEUR";"";"10000 TROYES";"10000";"10387";"Troyes";"";"";"0325490222";"";"0325799482";"nathalie-mauclair@korian.fr";"david.laplanche@ch-troyes.mssante.fr";
"8";"10001298792";"810001298792";"DR";"Docteur";"LESOUTIVIER";"DANIELE";"10";"Médecin";"C";"Civil";"SM26";"Qualifié en Médecine Générale";"S";"Spécialité ordinale";"";"";"";"";"";"";"";"";"";"";"";"";"";"";"";"";"";"";"";"";"";"";"";"";"";"";
"8";"10001314870";"810001314870";"DR";"Docteur";"TRAPP";"JEAN-CLAUDE";"10";"Médecin";"C";"Civil";"SM43";"Psychiatrie option enfant & adolescent";"S";"Spécialité ordinale";"";"";"";"";"";"";"";"";"";"";"";"";"";"";"";"";"";"";"";"";"";"";"";"";"";"";
"8";"10002851862";"810002851862";"PR";"Professeur";"MARTY";"NICOLE";"10";"Médecin";"C";"Civil";"SM03";"Biologie médicale";"S";"Spécialité ordinale";"";"";"";"";"";"";"";"";"";"";"";"";"";"";"";"";"";"";"";"";"";"";"";"";"";"marty.nicole@chu-toulouse.mssante.fr";
"8";"10002099140";"810002099140";"DR";"Docteur";"SCHOUTTETEN";"FRANCOIS";"10";"Médecin";"C";"Civil";"SM39";"Oto-rhino-laryngologie";"S";"Spécialité ordinale";"";"";"";"";"";"";"";"";"";"";"";"";"";"";"";"";"";"";"";"";"";"";"";"";"";"";
"8";"10000083146";"810000083146";"DR";"Docteur";"VAUZELLE";"CHRISTIAN";"40";"Chirurgien-Dentiste";"C";"Civil";"";"";"";"";"";"";"";"";"Cabinet du Dr VAUZELLE";"";"410000083146017";"TOUR CORTINA   4EME ETAGE";"";"41";"";"R";"Rue";"DU DISQUE";"";"75013 PARIS 13";"75013";"75113";"Paris 13e  Arrondissement";"";"";"";"";"";"";"";
"8";"10002937877";"810002937877";"DR";"Docteur";"JOFFRE";"BEATRICE";"10";"Médecin";"C";"Civil";"SM53";"Spécialiste en Médecine Générale";"S";"Spécialité ordinale";"";"";"";"";"CABINET DU DR FABIENNE DESCHAMPS";"CABINET DU DR FABIENNE DESCHAMPS";"410002937620007";"";"";"42";"";"";"";"AVENUE DE LA REVOLUTION";"";"87000 LIMOGES";"87000";"87085";"Limoges";"99000";"France";"05 55 32 67 35";"";"";"";"beatrice.joffre@chu-limoges.mssante.fr";
"8";"10000505254";"810000505254";"DR";"Docteur";"LANG";"MARIE-PIERRE";"10";"Médecin";"C";"Civil";"SM53";"Spécialiste en Médecine Générale";"S";"Spécialité ordinale";"";"";"";"";"CABINET DU DR MARIE-PIERRE LANG";"CABINET DU DR MARIE-PIERRE LANG";"410000505254001";"";"";"56";"";"";"";"RUE DE VOUILLE";"";"75015 PARIS";"75015";"75056";"Paris";"99000";"France";"01 45 32 40 76";"";"";"";"marie-pierre.lang@medecin.mssante.fr";
"8";"10000208305";"810000208305";"DR";"Docteur";"WAGMAN";"MICHELE";"10";"Médecin";"C";"Civil";"SM42";"Psychiatrie";"S";"Spécialité ordinale";"78592374900036";"785923749";"950680116";"950000729";"CMPP DE VILLIERS LE BEL";"";"1950680116";"";"";"9";"B";"R";"Rue";"SCRIBE";"";"95400 VILLIERS LE BEL";"95400";"95680";"Villiers-le-Bel";"";"";"0139943155";"";"0139948700";"villiers.cmpp@wanadoo.fr";"";
"8";"10000472588";"810000472588";"";"";"JACQUET-DECHAVANNE";"DOMINIQUE";"21";"Pharmacien";"C";"Civil";"FQ01";"Expérience prat. art. R.5124-16 du CSP Fabricant";"FQ";"Fonction Qualifiée";"42126446600069";"421264466";"";"";"MUNDIPHARMA";"";"342126446600069";"";"";"7";"";"QU";"Quai";"ANDRE CITROEN";"";"75015 PARIS";"75015";"";"";"";"";"";"";"";"";"";
"8";"10001828044";"810001828044";"DR";"Docteur";"CUPILLARD";"LIONEL";"21";"Pharmacien";"C";"Civil";"";"";"";"";"59080021500097";"590800215";"";"";"MERIAL SAS LABORATOIRE LYON GERLAND";"";"359080021500097";"";"";"254";"";"R";"Rue";"MARCEL MERIEUX";"";"69007 LYON";"69007";"69123";"Lyon";"99000";"France";"";"";"";"";"";
"8";"10005875819";"810005875819";"";"";"BESSON";"CLAUDINE";"70";"Masseur-Kinésithérapeute";"C";"Civil";"";"";"";"";"";"";"";"";"BAUMEISTER SIEGRID";"CABINET INDIVIDUEL";"410005900898005";"";"";"4";"";"R";"Rue";"MAURICE CLAVEL";"";"34200 SETE";"34200";"34301";"Sète";"99000";"France";"";"0669730724";"";"";"";
"8";"10003990214";"810003990214";"DR";"Docteur";"GUICHENEY";"FABRICE";"10";"Médecin";"C";"Civil";"SM53";"Spécialiste en Médecine Générale";"S";"Spécialité ordinale";"";"";"";"";"CABINET DU DR FABRICE GUICHENEY";"CABINET DU DR FABRICE GUICHENEY";"410003990214001";"";"";"18";"";"";"";"ROUTE DE L'OUSTALET";"";"33490 CAUDROT";"33490";"33111";"Caudrot";"99000";"France";"";"";"";"";"fabrice.guicheney@medecin.mssante.fr";
"8";"10004086624";"810004086624";"DR";"Docteur";"AGAMEMNON";"SABINE";"10";"Médecin";"C";"Civil";"SM26";"Qualifié en Médecine Générale";"S";"Spécialité ordinale";"";"";"";"";"CABINET DU DR SABINE AGAMEMNON";"CABINET DU DR SABINE AGAMEMNON";"410004086624004";"CABINET MEDICAL";"";"60";"B";"";"";"RUE RAPHAEL BABET";"";"97480 ST JOSEPH";"97480";"97412";"Saint-Joseph";"99000";"France";"02 62 56 61 36";"";"";"";"sabine.agamemnon@medecin.mssante.fr";
"8";"10002622933";"810002622933";"DR";"Docteur";"LE YEUC'H";"FREDERIC";"10";"Médecin";"C";"Civil";"SM53";"Spécialiste en Médecine Générale";"S";"Spécialité ordinale";"";"";"";"";"CABINET DU DR FREDERIC LE YEUC'H";"CABINET DU DR FREDERIC LE YEUC'H";"410002622933012";"";"";"3";"";"";"";"RUE PERCEVAL";"";"29000 QUIMPER";"29000";"29232";"Quimper";"99000";"France";"02 98 90 62 98";"";"02 98 90 12 01";"";"";
"8";"10101124989";"810101124989";"DR";"Docteur";"NEVEUX";"JULIE";"10";"Médecin";"C";"Civil";"SM53";"Spécialiste en Médecine Générale";"S";"Spécialité ordinale";"";"";"";"";"";"";"";"";"";"";"";"";"";"";"";"";"";"";"";"";"";"";"";"";"";"";
"8";"10101685336";"810101685336";"";"";"RICHARD";"ANNE LAURE";"10";"Médecin";"E";"Etudiant";"";"";"";"";"";"";"";"";"";"";"";"";"";"";"";"";"";"";"";"";"";"";"";"";"";"";"";"";"";"";
"8";"10005563761";"810005563761";"";"";"PATEY";"MARION";"70";"Masseur-Kinésithérapeute";"C";"Civil";"";"";"";"";"26690027300969";"266900273";"690007539";"690781810";"HOPITAL FEMME MERE ENFANT - HCL";"";"1690007539";"";"";"59";"";"BD";"Boulevard";"PINEL";"";"69677 BRON CEDEX";"69677";"69029";"Bron";"";"";"0825082569";"";"0427856286";"nc.bureau-des-entrees-hfme@chu-lyon.fr";"";
"8";"10001911105";"810001911105";"DR";"Docteur";"DAGHER";"SOPHIE";"10";"Médecin";"C";"Civil";"SM26";"Qualifié en Médecine Générale";"S";"Spécialité ordinale";"";"";"";"";"CABINET DU DR SOPHIE DAGHER";"";"410001911105001";"CLINIQUE ORMEAUX VAUBAN";"";"36";"";"";"";"RUE MARCEAU";"";"76600 LE HAVRE";"76600";"76351";"Le Havre";"99000";"France";"";"";"";"";"dagher.sophie105@sephira.mssante.fr";
