catégorie_beneficiaire;date;declaration_id;detail;entreprise_émmetrice;filiale_déclarante;identifiant;identifiant_convention;identifiant_entreprise;montant_ttc;nom_prénom;profession;specialité;structure_bénéficiaire;type_declaration;type_identifiant
Professionnel de santé;06/12/2016;Convention | ZKEJWAGJ | 00000000000000148743;AUTRE : PARTICIPATION A MANIFESTATION SCIENTIFIQUE - Manifestation : 'BPCO QUESTIONS D ACTUALITE' Organisé le : '06/12/2016' À : 'L AIGLE FR' ;Boehringer Ingelheim;BOEHRINGER INGELHEIM FRANCE;10000917202;Convention | ZKEJWAGJ | 00000000000000148743;ZKEJWAGJ;;GAULARD Genevieve;Pharmacien;Autre;;Convention;RPPS
Professionnel de santé;03/05/2018;Convention | FXYBJUOV | 20180807_LUF_933;Hospitalité - Manifestation : 'RIM ADDICTION ET SCHIZOPHRENIE' Organisé le : '03/05/2018' À : 'TOULOUSE' ;LUNDBECK SAS;LUNDBECK SAS;[SO];Convention | FXYBJUOV | 20180807_LUF_933;FXYBJUOV;60;BAUDRY Caroline;Infirmier;;;Convention;AUTRE
Professionnel de santé;21/03/2017;Convention | IIXRHSGB | RPC-2017-00831_PS-0001395;Hospitalité - Manifestation : 'L'antibiothérapie : un enjeu de santé publique' Organisé le : '21/03/2017' À : 'CENTRE CULINAIRE CONTEMPORAIN - 8 rue jules Maillard de la gournerie - RENNES-35000 / France' ;SANOFI SA;SANOFI AVENTIS FRANCE;10001442242;Convention | IIXRHSGB | RPC-2017-00831_PS-0001395;IIXRHSGB;;ABOAB DAVOUST Noelle;Pharmacien;Autre;;Convention;RPPS
Professionnel de santé;01/07/2013;Convention | SYCNVYRX | CO20132PSIG19032014-048065;Formation - ;Astrazeneca;ASTRAZENECA;10100421618;Convention | SYCNVYRX | CO20132PSIG19032014-048065;SYCNVYRX;;MAHEU Ophelie;Médecin;;;Convention;RPPS
Professionnel de santé;20/11/2013;Convention | SYCNVYRX | CO20132PSIG19032014-051878;Formation - ;Astrazeneca;ASTRAZENECA;10001892313;Convention | SYCNVYRX | CO20132PSIG19032014-051878;SYCNVYRX;;MORISSE Bruno;Médecin;;;Convention;RPPS
Professionnel de santé;28/01/2017;Convention | ONAVHBNS | CPP_YVELINES_2018_47;CONGRES SYMPOSIUM - Manifestation : '30e JOURNEE DE CARDIOLOGIE DES YVELINES' Organisé le : '28/01/2017' À : 'ST GERMAIN EN LAYE' Par : 'CONGRES COLLOQUES CONVENTIONS' ;CONGRES COLLOQUES CONVENTIONS;CONGRES COLLOQUES CONVENTIONS;10000553817;Convention | ONAVHBNS | CPP_YVELINES_2018_47;ONAVHBNS;;PATRAT Jean Frederic;Médecin;Cardiologie et maladies vasculaires;;Convention;RPPS
Professionnel de santé;23/01/2014;Convention | ZKEJWAGJ | 00000000000000026165;AUTRE : PARTICIPATION A MANIFESTATION SCIENTIFIQUE - Manifestation : 'SERIOUS GAME PRADAXA' Organisé le : '23/01/2014' À : 'AUBUSSON FRANCE' ;Boehringer Ingelheim;BOEHRINGER INGELHEIM FRANCE;10002927472;Convention | ZKEJWAGJ | 00000000000000026165;ZKEJWAGJ;;LORTHOLARY Claude;Médecin;Médecine Générale;;Convention;RPPS
Professionnel de santé;12/12/2017;Convention | ZKEJWAGJ | 00000000000000254027;Contrat d'expert scientifique, contrat dans le cadre d'une recherche, contrat de consultant - Manifestation : 'ACTIVITES DIGITALES DE LA DIRECTION DES AFFAIRES MEDICALES TELLES QUE PLATEFORMES ET SITES WEB, CONTENUS DIGITAUX, WEBINAIRES, WEBCASTS, E-LEARNINGS…' Organisé le : '14/12/2017' À : 'PARIS' Par : 'BOEHRINGER INGELHEIM' ;Boehringer Ingelheim;BOEHRINGER INGELHEIM FRANCE;10002302940;Convention | ZKEJWAGJ | 00000000000000254027;ZKEJWAGJ;;GIROT Marie;Médecin;Neurologie;;Convention;RPPS
Professionnel de santé;04/12/2014;Convention | ZKEJWAGJ | 00000000000000049387;AUTRE : PARTICIPATION A MANIFESTATION SCIENTIFIQUE - Manifestation : 'REUNION INTERDISCIPLINAIRE AUTOUR DES SYMPTOMES RESPIRATOIRES' Organisé le : '04/12/2014' À : 'ANTIBES FR' ;Boehringer Ingelheim;BOEHRINGER INGELHEIM FRANCE;10003286423;Convention | ZKEJWAGJ | 00000000000000049387;ZKEJWAGJ;;LEPILLER Philippe;Médecin;Médecine Générale;;Convention;RPPS
Professionnel de santé;11/10/2016;Convention | ZKEJWAGJ | 00000000000000153646;AUTRE : PARTICIPATION A MANIFESTATION SCIENTIFIQUE - Manifestation : 'LES AVANCEES DANS LA FA ET LEURS IMPLICATIONS DANS NOS PRATIQUES' Organisé le : '11/10/2016' À : 'LAMOTTE BEUVRON FR' ;Boehringer Ingelheim;BOEHRINGER INGELHEIM FRANCE;10002049137;Convention | ZKEJWAGJ | 00000000000000153646;ZKEJWAGJ;;DUJON Armand;Médecin;Médecine Générale;;Convention;RPPS
Professionnel de santé;06/10/2016;Convention | ZKEJWAGJ | 00000000000000175867;AUTRE : PARTICIPATION A MANIFESTATION SCIENTIFIQUE - Manifestation : 'READAPTATION A L EFFORT DANS LA FIBROSE PULMONAIRE' Organisé le : '06/10/2016' À : 'PONT D HERY FR' ;Boehringer Ingelheim;BOEHRINGER INGELHEIM FRANCE;10100695633;Convention | ZKEJWAGJ | 00000000000000175867;ZKEJWAGJ;;ROUX Pauline;Médecin;Pneumologie;;Convention;RPPS
Professionnel de santé;04/07/2013;Convention | ZKEJWAGJ | 00000000000000004079;AUTRE : PARTICIPATION A MANIFESTATION SCIENTIFIQUE - Manifestation : 'GESTION PRATIQUE DES NACOS UN AN APRES' Organisé le : '04/07/2013' À : 'LE PORT MARLY FRANCE' ;Boehringer Ingelheim;BOEHRINGER INGELHEIM FRANCE;10000798461;Convention | ZKEJWAGJ | 00000000000000004079;ZKEJWAGJ;;ROMEJKO Philippe;Médecin;Cardiologie et maladies vasculaires;;Convention;RPPS
Professionnel de santé;24/11/2016;Convention | ZKEJWAGJ | 00000000000000152965;AUTRE : PARTICIPATION A MANIFESTATION SCIENTIFIQUE - Manifestation : 'LES AVANCEES DANS LA FA ET LEURS IMPLICATIONS DANS NOS PRATIQUES' Organisé le : '24/11/2016' À : 'ROGNAC FR' ;Boehringer Ingelheim;BOEHRINGER INGELHEIM FRANCE;10003358792;Convention | ZKEJWAGJ | 00000000000000152965;ZKEJWAGJ;;CESARI BROUAT Chantal;Médecin;Médecine Générale;;Convention;RPPS
Professionnel de santé;10/06/2014;Convention | ZKEJWAGJ | 00000000000000049115;AUTRE : PARTICIPATION A MANIFESTATION SCIENTIFIQUE - Manifestation : 'MEDECINE PERSONNALISEE DU CANCER BIEN CHOISIR SA VOIE EN ONCOLOGIE PULMONAIRE' Organisé le : '10/06/2014' À : 'LYON FR' ;Boehringer Ingelheim;BOEHRINGER INGELHEIM FRANCE;10100179604;Convention | ZKEJWAGJ | 00000000000000049115;ZKEJWAGJ;;AVRILLON Virginie;Médecin;Pneumologie;;Convention;RPPS
Professionnel de santé;21/05/2015;Convention | ZKEJWAGJ | 00000000000000081151;AUTRE : PARTICIPATION A MANIFESTATION SCIENTIFIQUE - Manifestation : 'GESTION DU RISQUE HEMORRAGIQUE BON USAGE ET BIOLOGIE DES AOD' Organisé le : '21/05/2015' À : 'MARSEILLE FR' ;Boehringer Ingelheim;BOEHRINGER INGELHEIM FRANCE;10003360509;Convention | ZKEJWAGJ | 00000000000000081151;ZKEJWAGJ;;LAFAY Vincent;Médecin;Cardiologie et maladies vasculaires;;Convention;RPPS
Professionnel de santé;20/05/2014;Convention | SOWWIAEU | C_1-CNA00W67890_1-8K57-6702;CONGRES / SYMPOSIUM - Manifestation : 'UNIVERSAL MEDICA' Organisé le : '20/05/2014' À : 'RENNES' Par : 'BAYER' ;Bayer;Bayer HealthCare SAS;10001367142;Convention | SOWWIAEU | C_1-CNA00W67890_1-8K57-6702;SOWWIAEU;;GUILLET Benoit;Médecin;;;Convention;RPPS
Professionnel de santé;01/02/2018;Convention | SOWWIAEU | C_A481P000000CWCHAAS_A3U1P0000006YD2AAI;Hospitalité - Manifestation : 'Staff :  ACTUALITÉS SUR LES PRODUITS DE CONTRASTE SCANNER' Organisé le : '01/02/2018' À : 'BRY SUR MARNE' Par : 'BAYER' ;Bayer;Bayer HealthCare SAS;;Convention | SOWWIAEU | C_A481P000000CWCHAAS_A3U1P0000006YD2AAI;SOWWIAEU;23;DA COSTA Emilie;Manipulateur d’électroradiologie médicale;;;Convention;AUTRE
Professionnel de santé;01/02/2018;Convention | SOWWIAEU | C_A481P000000CWCHAAS_A3U1P0000006ZDIAAY;Hospitalité - Manifestation : 'Staff :  ACTUALITÉS SUR LES PRODUITS DE CONTRASTE SCANNER' Organisé le : '01/02/2018' À : 'BRY SUR MARNE' Par : 'BAYER' ;Bayer;Bayer HealthCare SAS;;Convention | SOWWIAEU | C_A481P000000CWCHAAS_A3U1P0000006ZDIAAY;SOWWIAEU;23;BRICE Corinne;Manipulateur d’électroradiologie médicale;;;Convention;AUTRE
Professionnel de santé;03/05/2015;Convention | SOWWIAEU | C_1-JTMAIP67890_HOS;INVITATION CONGRES - Manifestation : 'PRISE EN CHARGE ARVO POUR SARA TOUHAMI-HOPITAL DES 15/20' Organisé le : '03/05/2015' À : 'DENVER' Par : 'BAYER' ;Bayer;Bayer HealthCare SAS;10100950012;Convention | SOWWIAEU | C_1-JTMAIP67890_HOS;SOWWIAEU;1700;TOUHAMI Sara;Médecin;;;Convention;RPPS
Vétérinaire;03/10/2017;Convention | SOWWIAEU | C_AH_RC_34;Hospitalité - Manifestation : 'SE DEVELOPPER SUR LE MARCHE DES PRODUITS EN CANINE GENERALISTE' Organisé le : '03/10/2017' À : 'ARCHAMPS' Par : 'BAYER' ;Bayer;Bayer HealthCare SAS;14651;Convention | SOWWIAEU | C_AH_RC_34;SOWWIAEU;45;DERIQUE Sophie;;;;Convention;ORDRE
Professionnel de santé;23/06/2016;Convention | SOWWIAEU | C_1-1EFEWE067890_1-8K5V-2236;AUTRE : MANIFESTATION DE PROMOTION - Manifestation : 'JAYDESS : EFFICACITE ET TOLERANCE - DEMONSTRATION DE POSE' Organisé le : '23/06/2016' À : 'le pontet' Par : 'BAYER' ;Bayer;Bayer HealthCare SAS;10003407664;Convention | SOWWIAEU | C_1-1EFEWE067890_1-8K5V-2236;SOWWIAEU;;VIDAL Catherine;Médecin;;;Convention;RPPS
Professionnel de santé;24/01/2017;Convention | IIXRHSGB | RPC-2017-00255_PS-0729816;Autre : [Réunion] - Manifestation : 'Date fin : 31-03-17 Enjeux & Bonnes Pratiques pour une Insulinothérapie Basale & une ASG bien menées' Organisé le : '24/01/2017' À : 'Le vin sur vin - 122 rue de Sannois - ERMONT-95120 / France' ;SANOFI SA;SANOFI AVENTIS FRANCE;10001326726;Convention | IIXRHSGB | RPC-2017-00255_PS-0729816;IIXRHSGB;;DELCROIX Josiane;Médecin;Médecine Générale;;Convention;RPPS
Professionnel de santé;18/09/2014;Convention | ZKEJWAGJ | 00000000000000048341;AUTRE : PARTICIPATION A MANIFESTATION SCIENTIFIQUE - Manifestation : 'BPCO ET PRISE EN CHARGE THERAPEUTIQUE' Organisé le : '18/09/2014' À : 'CROISSY BEAUBOURG FR' ;Boehringer Ingelheim;BOEHRINGER INGELHEIM FRANCE;;Convention | ZKEJWAGJ | 00000000000000048341;ZKEJWAGJ;;AYINKAMIYE Emelyne;Médecin;Pneumologie;;Convention;AUTRE
Professionnel de santé;06/06/2017;Convention | ZKEJWAGJ | 00000000000000182676;Hospitalité - Manifestation : 'LES AVANCEES PRATIQUES DANS LA FA ET LEURS IMPLICATIONS DANS NOS PRATIQUES' Organisé le : '06/06/2017' À : 'MARCQ EN BAROEUL FR' ;Boehringer Ingelheim;BOEHRINGER INGELHEIM FRANCE;10002220936;Convention | ZKEJWAGJ | 00000000000000182676;ZKEJWAGJ;;HEBBINCKUYS OVLAQUE Sylvie;Médecin;Médecine Générale;;Convention;RPPS
Professionnel de santé;30/01/2014;Convention | SYCNVYRX | CO20141PSIG30072014-061576;Formation - ;Astrazeneca;ASTRAZENECA;10001505337;Convention | SYCNVYRX | CO20141PSIG30072014-061576;SYCNVYRX;;GHIMOUZ ABERKANE Fatima;Médecin;;;Convention;RPPS
Professionnel de santé;06/04/2017;Convention | ZKEJWAGJ | 00000000000000194193;Hospitalité - Manifestation : 'LES AVANCEES PRATIQUES DANS LA FA ET LEURS IMPLICATIONS DANS NOS PRATIQUES' Organisé le : '06/04/2017' À : 'MONTPELLIER FR' ;Boehringer Ingelheim;BOEHRINGER INGELHEIM FRANCE;10100547438;Convention | ZKEJWAGJ | 00000000000000194193;ZKEJWAGJ;;VUILLOT Olivier;Médecin;Médecine Générale;;Convention;RPPS
Professionnel de santé;11/01/2017;Convention | SQZVJHFY | RPC-2016-0546_PS-0695567;Inscription congrès - Manifestation : '27è Journées Européennes de la Société Française de Cardiologie (JESFC 2017)' Organisé le : '11/01/2017' À : 'PARIS / FRANCE' ;Pfizer;PFIZER SAS;10003425278;Convention | SQZVJHFY | RPC-2016-0546_PS-0695567;SQZVJHFY;;CAUCINO FLECHER Karine;Médecin;Cardiologie et maladies vasculaires;;Convention;RPPS
Professionnel de santé;06/06/2017;Convention | SQZVJHFY | RPC-2017-0347_PS-0893896;Hospitalité - Manifestation : 'VACCINATION PATIENTS IMMUNODEPRIMES ET A RISQUES: ACTUALITES 2017' Organisé le : '06/06/2017' À : 'LE MANS / FRANCE' ;Pfizer;PFIZER SAS;;Convention | SQZVJHFY | RPC-2017-0347_PS-0893896;SQZVJHFY;;CATTIN Yasmine;Médecin;Médecine du travail;;Convention;AUTRE
Professionnel de santé;08/03/2017;Convention | SQZVJHFY | RPC-2016-0670_PS-0428804;Inscription congrès - Manifestation : '14th Annual ENETS Conference' Organisé le : '08/03/2017' À : 'Barcelona / ESPAGNE' ;Pfizer;PFIZER SAS;10003897955;Convention | SQZVJHFY | RPC-2016-0670_PS-0428804;SQZVJHFY;;CAVAGLIONE Gerard;Médecin;Oncologie (option onco-hématologie);;Convention;RPPS
Professionnel de santé;03/03/2017;Convention | SQZVJHFY | RPC-2016-0968_PS-1090343;Hospitalité - Manifestation : 'Place et avenir de l'imagerie en Cardiologie en 2017' Organisé le : '03/03/2017' À : 'TOULOUSE / FRANCE' ;Pfizer;PFIZER SAS;[SO];Convention | SQZVJHFY | RPC-2016-0968_PS-1090343;SQZVJHFY;;CAVALERIE Hugo;Médecin;Autre;;Convention;AUTRE
Professionnel de santé;20/06/2017;Convention | SQZVJHFY | RPC-2017-0440_PS-0886718;Hospitalité - Manifestation : 'LA VACCINATION DES IMMUNODEPRIMES' Organisé le : '20/06/2017' À : 'LILLE / FRANCE' ;Pfizer;PFIZER SAS;[SO];Convention | SQZVJHFY | RPC-2017-0440_PS-0886718;SQZVJHFY;;CERBELLE Valentine;Médecin;Autre;;Convention;AUTRE
Professionnel de santé;06/06/2017;Convention | SQZVJHFY | CO-2017-1170_PS-0735677;Congrès/Symposium - Manifestation : 'LA FIBRILLATION ATRIALE : DIAGNOSTIC ET  TRAITEMENTS' Organisé le : '15/06/2017' À : 'DEVILLE LES ROUEN / FRANCE' ;Pfizer;PFIZER SAS;10004069570;Convention | SQZVJHFY | CO-2017-1170_PS-0735677;SQZVJHFY;;CERQUEIRA MARINHO Sebastien;Médecin;Cardiologie et maladies vasculaires;;Convention;RPPS
Professionnel de santé;28/02/2017;Convention | SQZVJHFY | RPC-2016-0946_PS-1085982;Hospitalité - Manifestation : 'Unité de concertation pluridisciplinaire en Oncologie : management du patient sous thérapie ciblée' Organisé le : '28/02/2017' À : 'CHALON SUR SAONE / FRANCE' ;Pfizer;PFIZER SAS;[SO];Convention | SQZVJHFY | RPC-2016-0946_PS-1085982;SQZVJHFY;;CERTAIN Marie Caroline;Médecin;Autre;;Convention;AUTRE
Professionnel de santé;02/03/2017;Convention | SQZVJHFY | RPC-2016-0973_PS-0429630;Hospitalité - Manifestation : 'Actualités Dermatologiques et Vaccination' Organisé le : '02/03/2017' À : 'Paris / FRANCE' ;Pfizer;PFIZER SAS;10001191963;Convention | SQZVJHFY | RPC-2016-0973_PS-0429630;SQZVJHFY;;CESARO M Joelle;Médecin;Dermatologie et vénéréologie;;Convention;RPPS
Professionnel de santé;11/01/2017;Convention | SQZVJHFY | RPC-2016-0795_PS-0090895;Inscription congrès - Manifestation : '27è Journées Européennes de la Société Française de Cardiologie (JESFC 2017)' Organisé le : '11/01/2017' À : 'PARIS / FRANCE' ;Pfizer;PFIZER SAS;10100745495;Convention | SQZVJHFY | RPC-2016-0795_PS-0090895;SQZVJHFY;;CESCAU Arthur;Médecin;Cardiologie et maladies vasculaires;;Convention;RPPS
Professionnel de santé;13/03/2017;Convention | SQZVJHFY | RPC-2016-0955_PS-0165430;Inscription congrès - Manifestation : '9ème Journée nationale de la Section Education Thérapeutique de la Société Française de Rhumatologie' Organisé le : '13/03/2017' À : 'PARIS / FRANCE' ;Pfizer;PFIZER SAS;[SO];Convention | SQZVJHFY | RPC-2016-0955_PS-0165430;SQZVJHFY;;CESSAC Francoise;Infirmier;Autre;;Convention;AUTRE
Professionnel de santé;07/03/2017;Convention | SQZVJHFY | RPS-2017-00016_PS-0430044;Hospitalité - Manifestation : 'Elémentaire Dr Watson  La Fibrillation Atriale en pratique' Organisé le : '07/03/2017' À : 'ARGENTAN / France' ;Pfizer;PFIZER SAS;10002127487;Convention | SQZVJHFY | RPS-2017-00016_PS-0430044;SQZVJHFY;;CHABOISSON Patrick;Médecin;Médecine du travail;;Convention;RPPS
Professionnel de santé;28/03/2017;Convention | SQZVJHFY | RPC-2017-0015_PS-0667119;Hospitalité - Manifestation : 'ACTUALITES SUR LE TRAITEMENT DE LA FIBRILLATION ATRIALE NON VALVULAIRE ET PLACE DES ANTICOAGULANTS ORAUX DIRECTS' Organisé le : '28/03/2017' À : 'CORENC / FRANCE' ;Pfizer;PFIZER SAS;10002992617;Convention | SQZVJHFY | RPC-2017-0015_PS-0667119;SQZVJHFY;;CHABOT Philippe;Médecin;Médecine du travail;;Convention;RPPS
Professionnel de santé;22/06/2017;Convention | SQZVJHFY | RPC-2017-0441_PS-0667120;Hospitalité - Manifestation : 'Symphonie NIMES : le cancer du sein métastatique aujourd'hui' Organisé le : '22/06/2017' À : 'NIMES / FRANCE' ;Pfizer;PFIZER SAS;10001883866;Convention | SQZVJHFY | RPC-2017-0441_PS-0667120;SQZVJHFY;;CHABROLLES Isabelle;Pharmacien;Autre;;Convention;RPPS
Professionnel de santé;20/01/2017;Convention | SQZVJHFY | RPC-2016-0560_PS-0430098;Inscription congrès - Manifestation : '21es Rencontres de Pédiatrie Pratique (RPP 2017)' Organisé le : '20/01/2017' À : 'PARIS / FRANCE' ;Pfizer;PFIZER SAS;[SO];Convention | SQZVJHFY | RPC-2016-0560_PS-0430098;SQZVJHFY;;CHACE Anne;Médecin;Pédiatrie;;Convention;AUTRE
Professionnel de santé;11/05/2017;Convention | SQZVJHFY | RPC-2016-0928_PS-0667575;Hospitalité - Manifestation : 'ALLIANCE DAY' Organisé le : '11/05/2017' À : 'NICE / FRANCE' ;Pfizer;PFIZER SAS;10100381002;Convention | SQZVJHFY | RPC-2016-0928_PS-0667575;SQZVJHFY;;CHACHOUA Karim Faouzi;Médecin;Cardiologie et maladies vasculaires;;Convention;RPPS
Professionnel de santé;29/06/2017;Convention | SQZVJHFY | RPC-2017-0468_PS-0209855;Hospitalité - Manifestation : 'Quelle actualité en rhuamtologie au CHU de Clermont-Ferrand' Organisé le : '29/06/2017' À : 'Perignat les Sarlieves / FRANCE' ;Pfizer;PFIZER SAS;[SO];Convention | SQZVJHFY | RPC-2017-0468_PS-0209855;SQZVJHFY;;CHADRIN Marie;Infirmier;Autre;;Convention;AUTRE
Professionnel de santé;21/11/2016;Convention | SOWWIAEU | C_42756;Contrat de conseil scientifique - ;Bayer;Bayer HealthCare SAS;10003296083;Convention | SOWWIAEU | C_42756;SOWWIAEU;;TIBI Thierry;Médecin;;;Convention;RPPS
Etablissement de santé;02/06/2015;Convention | SOWWIAEU | C_JUR_441;Recherche et développement - ;Bayer;Bayer HealthCare SAS;;Convention | SOWWIAEU | C_JUR_441;SOWWIAEU;;;;;INSTITUT GUSTAVE ROUSSY;Convention;AUTRE
Professionnel de santé;05/12/2016;Convention | SOWWIAEU | C-CH-2016-0003;Contrat d'expert scientifique, contrat dans le cadre d'une recherche, contrat de consultant - Manifestation : 'Global Ophtalmology Perceptorship' ;Bayer;Bayer HealthCare SAS;10003854212;Convention | SOWWIAEU | C-CH-2016-0003;SOWWIAEU;;ROUGIER Marie Benedicte;Médecin;;;Convention;RPPS
Professionnel de santé;24/05/2018;Convention | SOWWIAEU | C_A481P0000004RIXAAI_A3U1P000000E3CAAAY;Hospitalité - Manifestation : 'Staff : NOUVEAUTÉ EN CONTRACEPTION' Organisé le : '24/05/2018' À : 'VICHY' Par : 'BAYER' ;Bayer;Bayer HealthCare SAS;10003636023;Convention | SOWWIAEU | C_A481P0000004RIXAAI_A3U1P000000E3CAAAY;SOWWIAEU;15;LENGLET Yann;Médecin;;;Convention;RPPS
Professionnel de santé;11/04/2018;Convention | SOWWIAEU | C_A481P000000CXV0AAC_A3U1P000000GCBRAAK;Hospitalité - Manifestation : 'Staff : NOUVEAUTÉ EN CONTRACEPTION' Organisé le : '11/04/2018' À : 'ST GERMAIN EN LAYE' Par : 'BAYER' ;Bayer;Bayer HealthCare SAS;10000374578;Convention | SOWWIAEU | C_A481P000000CXV0AAC_A3U1P000000GCBRAAK;SOWWIAEU;11;DUMOLLARD Claire;Médecin;;;Convention;RPPS
Professionnel de santé;11/04/2018;Convention | SOWWIAEU | C_A481P000000CXV0AAC_A3U1P000000GCBWAAK;Hospitalité - Manifestation : 'Staff : NOUVEAUTÉ EN CONTRACEPTION' Organisé le : '11/04/2018' À : 'ST GERMAIN EN LAYE' Par : 'BAYER' ;Bayer;Bayer HealthCare SAS;;Convention | SOWWIAEU | C_A481P000000CXV0AAC_A3U1P000000GCBWAAK;SOWWIAEU;11;DOITEAU Gaelle;Sage-femme;;;Convention;AUTRE
Professionnel de santé;12/03/2015;Convention | SOWWIAEU | C_1-ITZOJI67890_1-8K51-8873;AUTRE : MANIFESTATION DE PROMOTION - Manifestation : 'La mise en confiance par l'hypnose' Organisé le : '12/03/2015' À : 'MARSEILLE' Par : 'BAYER' ;Bayer;Bayer HealthCare SAS;10003432738;Convention | SOWWIAEU | C_1-ITZOJI67890_1-8K51-8873;SOWWIAEU;;DRIR Mohamed;Médecin;;;Convention;RPPS
Professionnel de santé;11/12/2014;Convention | IIXRHSGB | RPC-2014-05427_PS-0750546;Hospitalité - Manifestation : 'Programme Léa' Organisé le : '11/12/2014' À : 'La bonne Auberge - 14 avenue de paris - Soisy sous montmorençy-95230 / France' ;SANOFI SA;SANOFI AVENTIS FRANCE;10001292688;Convention | IIXRHSGB | RPC-2014-05427_PS-0750546;IIXRHSGB;;FRANCOIS Alain;Médecin;Médecine Générale;;Convention;RPPS
Professionnel de santé;14/01/2015;Convention | JUJJFUKK | RPC-2014-0569_PS-0037992;Autre : [Convention d'hospitalité] - Manifestation : 'UROLOGIE VANNES' Organisé le : '14/01/2015' À : 'VANNES' Par : '0' ;GlaxoSmithKline;LABORATOIRE GLAXOSMITHKLINE;10003785085;Convention | JUJJFUKK | RPC-2014-0569_PS-0037992;JUJJFUKK;;POTTIER LERCHE Evelyne;Médecin;Médecine Générale;;Convention;RPPS
Professionnel de santé;28/09/2017;Convention | YLWGMHGC | EVE-C-2018-2-21-100007259138;Inscription congrès - Manifestation : 'NEURO - 2017 - ANLLF' Organisé le : '28/09/2017' À : 'NICE' Par : 'Novartis Pharma France' ;Novartis;NOVARTIS PHARMA SAS;10003387759;Convention | YLWGMHGC | EVE-C-2018-2-21-100007259138;YLWGMHGC;661;THUILLIER Jean Noel;Médecin;Neurologie;;Convention;RPPS
Professionnel de santé;15/09/2017;Convention | YLWGMHGC | EVE-C-2018-2-21-100007259155;Inscription congrès - Manifestation : '2017 - OPHTA - DMLA en Pratique : 16e edition - 15' Organisé le : '15/09/2017' À : 'PARIS' Par : 'Novartis Pharma France' ;Novartis;NOVARTIS PHARMA SAS;10002075777;Convention | YLWGMHGC | EVE-C-2018-2-21-100007259155;YLWGMHGC;272;CHEVALLIER CHAUVENET Christine;Médecin;Ophtalmologie;;Convention;RPPS
Professionnel de santé;15/09/2017;Convention | YLWGMHGC | EVE-C-2018-2-21-100007259157;Inscription congrès - Manifestation : '2017 - OPHTA - DMLA en Pratique : 16e edition - 15' Organisé le : '15/09/2017' À : 'PARIS' Par : 'Novartis Pharma France' ;Novartis;NOVARTIS PHARMA SAS;10100659118;Convention | YLWGMHGC | EVE-C-2018-2-21-100007259157;YLWGMHGC;820;ROUISSI Sahbi;Médecin;Ophtalmologie;;Convention;RPPS
Professionnel de santé;21/04/2015;Convention | SOWWIAEU | C_1-KQQQNW67890;Contrat de conseil scientifique - Manifestation : 'PROGRES DE L IMAGERIE ET DES THERAPEUTIQUES MACULAIRES :UNE REVOLUTION DANS NOS PRATIQUES ?' Organisé le : '03/06/2015' À : 'PARIS' Par : 'BAYER' ;Bayer;Bayer HealthCare SAS;10000365329;Convention | SOWWIAEU | C_1-KQQQNW67890;SOWWIAEU;;FRANCAIS MAURY Catherine;Médecin;;;Convention;RPPS
Professionnel de santé;26/01/2017;Convention | SOWWIAEU | C_A48240000000BWQAAQ_A3U24000000B6FLAAS;Hospitalité - Manifestation : 'STAFF HOSPITALIER' Organisé le : '26/01/2017' À : 'BERNAY' Par : 'BAYER' ;Bayer;Bayer HealthCare SAS;10004427679;Convention | SOWWIAEU | C_A48240000000BWQAAQ_A3U24000000B6FLAAS;SOWWIAEU;22;FAOUR Ali;Médecin;;;Convention;RPPS
Professionnel de santé;08/11/2016;Convention | XCKYTDRO | 2016S2_PPC_03296;CONGRES/SYMPOSIUM - Manifestation : 'ZYTIGA : BON USAGE' Organisé le : '08/11/2016' À : 'CHARLEVILLE' Par : 'JANSSEN' ;Johnson & Johnson;JANSSEN-CILAG;10002670486;Convention | XCKYTDRO | 2016S2_PPC_03296;XCKYTDRO;;RIQUET Herve;Médecin;Chirurgie urologique;;Convention;RPPS
Etudiant;13/02/2014;Convention | XCKYTDRO | 2014S1_PPC_01731;CONGRES / SYMPOSIUM - Manifestation : 'POST ASCO GU 2014' Organisé le : '13/02/2014' À : 'BEAUNE' Par : 'JANSSEN' ;Johnson & Johnson;JANSSEN-CILAG;;Convention | XCKYTDRO | 2014S1_PPC_01731;XCKYTDRO;;KREBS Lorraine;;;;Convention;AUTRE
Etudiant;12/05/2016;Convention | XCKYTDRO | 2016S1_PPC_04445;CONGRES/SYMPOSIUM - Manifestation : 'DEBATS CONTRADICTOIRES EN DERMATOLOGIE' Organisé le : '12/05/2016' À : 'DIJON' Par : 'JANSSEN' ;Johnson & Johnson;JANSSEN-CILAG;;Convention | XCKYTDRO | 2016S1_PPC_04445;XCKYTDRO;;JORDAN Maud;;;;Convention;AUTRE
Professionnel de santé;18/05/2017;Convention | IIXRHSGB | RPC-2017-02960_PS-0199062;Hospitalité - Manifestation : 'Date fin : 03-02-18 Enjeux & Bonnes Pratiques pour une Insulinothérapie Basale & une ASG bien menées' Organisé le : '18/05/2017' À : 'l engrenage - rue du golf - MERIGNIES-59710 / France' ;SANOFI SA;SANOFI AVENTIS FRANCE;10002247897;Convention | IIXRHSGB | RPC-2017-02960_PS-0199062;IIXRHSGB;;DEROUBAIX Raphael;Médecin;Médecine Générale;;Convention;RPPS
Professionnel de santé;09/11/2015;Convention | IIXRHSGB | RPC-2015-03752_PS-0669674;Inscription congrès - Manifestation : '90e Congrès de la Société Française de Chirurgie Orthopédique et Traumatologique' Organisé le : '09/11/2015' À : 'PALAIS DES CONGRÈS - PARIS / France' Par : 'LEVER DE RIDEAU' ;SANOFI SA;SANOFI AVENTIS FRANCE;10100596286;Convention | IIXRHSGB | RPC-2015-03752_PS-0669674;IIXRHSGB;;ZEGHDOUD Mahdi;Médecin;Chirurgie orthopédique et traumatologie;;Convention;RPPS
Professionnel de santé;11/12/2013;Convention | IIXRHSGB | CA2013_GEMPAR277639;Convention d'Hospitalité - Manifestation : 'Diabète Gestationnel' Organisé le : '11/12/2013' À : 'UEAJ - 642 RUE PAUL HEROULT - ST JEAN LE BLANC' ;SANOFI SA;SANOFI AVENTIS FRANCE;10003712097;Convention | IIXRHSGB | CA2013_GEMPAR277639;IIXRHSGB;;BECKAERT Veronique;Médecin;Autre;;Convention;RPPS
Professionnel de santé;18/12/2014;Convention | ZKEJWAGJ | 00000000000000037750;AUTRE : PARTICIPATION A MANIFESTATION SCIENTIFIQUE - Manifestation : 'AVANCEES PRATIQUES CAS CLINIQUES AUTOUR DES NOUVELLES PRATIQUES DE PREVENTION DE L AVC LIE A LA FA' Organisé le : '18/12/2014' À : 'PERIGNAT LES SARLIEVES FR' ;Boehringer Ingelheim;BOEHRINGER INGELHEIM FRANCE;10003166799;Convention | ZKEJWAGJ | 00000000000000037750;ZKEJWAGJ;;CHANY Christian;Médecin;Médecine Générale;;Convention;RPPS
Professionnel de santé;08/12/2016;Convention | ZKEJWAGJ | 00000000000000148782;AUTRE : PARTICIPATION A MANIFESTATION SCIENTIFIQUE - Manifestation : 'BPCO QUESTIONS D ACTUALITE' Organisé le : '08/12/2016' À : 'GRUSON FR' ;Boehringer Ingelheim;BOEHRINGER INGELHEIM FRANCE;10002230737;Convention | ZKEJWAGJ | 00000000000000148782;ZKEJWAGJ;;LECLERCQ Yves;Médecin;Médecine Générale;;Convention;RPPS
Professionnel de santé;14/10/2013;Convention | ZKEJWAGJ | 00000000000000013779;CONSEIL - ;Boehringer Ingelheim;BOEHRINGER INGELHEIM FRANCE;10002043452;Convention | ZKEJWAGJ | 00000000000000013779;ZKEJWAGJ;;HAMEL Emmanuel;Médecin;Cardiologie et maladies vasculaires;;Convention;RPPS
Professionnel de santé;14/10/2013;Convention | JUJJFUKK | CONVD-01339;[AUTRE] : [CONVENTION HOSPITALITE] - Manifestation : '3ème Edition des Ateliers Cliniques en Hématologie' Organisé le : '07/11/2013' À : 'Bordeaux' ;GlaxoSmithKline;LABORATOIRE GLAXOSMITHKLINE;10004595392;Convention | JUJJFUKK | CONVD-01339;JUJJFUKK;;LAZARO Estibaliz;Médecin;Médecine interne;;Convention;RPPS
Professionnel de santé;01/12/2015;Convention | IIXRHSGB | RPC-2015-03926_PS-0241133;Hospitalité - Manifestation : 'Echanges sur l'orthopédie' Organisé le : '01/12/2015' À : 'CLINIQUE ST MICHEL ST ANNE - 88 RUE DE KERJESTIN - QUIMPER-29000 / France' ;SANOFI SA;SANOFI AVENTIS FRANCE;10100218428;Convention | IIXRHSGB | RPC-2015-03926_PS-0241133;IIXRHSGB;;FALCOZ Edouard;Médecin;Autre;;Convention;RPPS
Professionnel de santé;29/05/2018;Convention | FXYBJUOV | 20180807_LUF_1192;Hospitalité - Manifestation : 'RIM ADDICTION ET SCHIZOPHRENIE' Organisé le : '29/05/2018' À : 'MARSEILLE' ;LUNDBECK SAS;LUNDBECK SAS;10100123156;Convention | FXYBJUOV | 20180807_LUF_1192;FXYBJUOV;60;HERNANDEZ Geraldine;Médecin;Psychiatrie;;Convention;RPPS
Professionnel de santé;14/09/2017;Convention | YLWGMHGC | EVE-C-2018-2-21-100007284450;Inscription congrès - Manifestation : '2017-CM- Congrès des JFIC - 14/15 sept 17 - Montpe' Organisé le : '14/09/2017' À : 'Montpellier' Par : 'Novartis Pharma France' ;Novartis;NOVARTIS PHARMA SAS;10100786747;Convention | YLWGMHGC | EVE-C-2018-2-21-100007284450;YLWGMHGC;235;AUDURIER Yohan;Pharmacien;Autre;;Convention;RPPS
Professionnel de santé;19/10/2017;Convention | YLWGMHGC | EVE-C-2018-2-21-100007284453;Inscription congrès - Manifestation : '2017 - CM - CNCF - OCT' Organisé le : '19/10/2017' À : 'EURALILLE' Par : 'Novartis Pharma France' ;Novartis;NOVARTIS PHARMA SAS;10000307560;Convention | YLWGMHGC | EVE-C-2018-2-21-100007284453;YLWGMHGC;872;DUMORA Philippe;Médecin;Cardiologie et maladies vasculaires;;Convention;RPPS
Professionnel de santé;10/03/2015;Convention | SYCNVYRX | CO20151PVVA29072015-086816;Formation - ;Astrazeneca;ASTRAZENECA;10000436823;Convention | SYCNVYRX | CO20151PVVA29072015-086816;SYCNVYRX;;POULAIN Francois;Médecin;;;Convention;RPPS
Professionnel de santé;26/06/2014;Convention | IIXRHSGB | RPC-2014-06201_PS-0504869;Hospitalité - Manifestation : 'Cours de Perfectionnement en Rythmologie - 2014' Organisé le : '26/06/2014' À : 'HOTEL MERCURE - LA GRANDE MOTTE / France' Par : 'AMEX' ;SANOFI SA;SANOFI AVENTIS FRANCE;10003228110;Convention | IIXRHSGB | RPC-2014-06201_PS-0504869;IIXRHSGB;;PASQUIE Jean Luc;Médecin;Cardiologie et maladies vasculaires;;Convention;RPPS
Professionnel de santé;13/11/2014;Convention | ZKEJWAGJ | 00000000000000050678;AUTRE : PARTICIPATION A MANIFESTATION SCIENTIFIQUE - Manifestation : 'FORMATION PRISE EN CHARGE AVC A LA PHASE AIGUE' Organisé le : '13/11/2014' À : 'BOUGUENAIS FR' ;Boehringer Ingelheim;BOEHRINGER INGELHEIM FRANCE;;Convention | ZKEJWAGJ | 00000000000000050678;ZKEJWAGJ;;SOUMANA Abdourahman;Médecin;Médecine Générale;;Convention;AUTRE
Professionnel de santé;12/01/2017;Convention | ZKEJWAGJ | 00000000000000183885;Hospitalité - Manifestation : 'BPCO NOUVELLES RECOMMANDATIONS NOUVELLES PRATIQUES' Organisé le : '12/01/2017' À : 'TROYES FR' ;Boehringer Ingelheim;BOEHRINGER INGELHEIM FRANCE;;Convention | ZKEJWAGJ | 00000000000000183885;ZKEJWAGJ;;DUBOIS Valentin;Médecin;Autre;;Convention;AUTRE
Professionnel de santé;26/04/2016;Convention | ZKEJWAGJ | 00000000000000117330;AUTRE : PARTICIPATION A MANIFESTATION SCIENTIFIQUE - Manifestation : 'BPCO ET PRISE EN CHARGE THERAPEUTIQUE' Organisé le : '26/04/2016' À : 'SECLIN FR' ;Boehringer Ingelheim;BOEHRINGER INGELHEIM FRANCE;10002205325;Convention | ZKEJWAGJ | 00000000000000117330;ZKEJWAGJ;;GATIE Philippe;Médecin;Médecine Générale;;Convention;RPPS
Professionnel de santé;06/02/2014;Convention | PTBTSRUS | 2014-EVA-05-1151_C_1778387;AUTRE : [PARTICIPATION RÉUNION SCIENTIFIQUE] - Manifestation : 'QUAND LES PROBLÈMES D'ÉRECTION S'INVITENT À LA TABLE DES TROUBLES URINAIRES LIÉS À L'HYPERTROPHIE BÉNIGNE DE LA PROSTATE' Organisé le : '06/02/2014' À : 'BREBIÈRES' Par : 'LILLY' ;Eli Lilly and Company;Lilly France SAS;10002210440;Convention | PTBTSRUS | 2014-EVA-05-1151_C_1778387;PTBTSRUS;;WIDIEZ Francis;Médecin;Médecine Générale;;Convention;RPPS
Professionnel de santé;07/12/2016;Convention | PTBTSRUS | 2017-E9981-01-589_C_1939097;AUTRE : [PARTICIPATION RÉUNION SCIENTIFIQUE] - Manifestation : 'RÉUNION SCIENTIFIQUE DANS LE DOMAINE DE LA DIABÉTOLOGIE' Organisé le : '07/12/2016' À : 'METZ' Par : 'LILLY' ;Eli Lilly and Company;Lilly France SAS;10002374030;Convention | PTBTSRUS | 2017-E9981-01-589_C_1939097;PTBTSRUS;;KAZMIERCZAK Guy;Médecin;Médecine Générale;;Convention;RPPS
Presse et média;01/07/2013;Convention | PTBTSRUS | 2013-CAT6ET7-02-40_C_355743;CONTRAT DE CONSEIL EN MARKETING/COMMUNICATION - Manifestation : 'CONTRAT DE CONSEIL EN MARKETING/COMMUNICATION - CONTRAT EN COURS AU 2ND SEMESTRE 2013' Organisé le : '01/07/2013' Par : 'LILLY' ;Eli Lilly and Company;Lilly France SAS;[SO];Convention | PTBTSRUS | 2013-CAT6ET7-02-40_C_355743;PTBTSRUS;;;;;VITAMINES STUDIO;Convention;AUTRE
Professionnel de santé;26/01/2015;Convention | SOWWIAEU | C_16753;Contrat de conseil scientifique - ;Bayer;Bayer HealthCare SAS;10005190961;Convention | SOWWIAEU | C_16753;SOWWIAEU;;MICHEL Guillaume;Médecin;;;Convention;RPPS
Professionnel de santé;18/11/2014;Convention | IIXRHSGB | RPC-2014-05828_PS-0743874;Hospitalité - Manifestation : 'Rencontres Pluridisciplinaires de Proximité' Organisé le : '18/11/2014' À : 'LES OLIVADES - ROUTE DE LA GARDE - GAP-05000 / France' ;SANOFI SA;SANOFI AVENTIS FRANCE;10003264909;Convention | IIXRHSGB | RPC-2014-05828_PS-0743874;IIXRHSGB;;EYMAR Sylvie;Médecin;Médecine Générale;;Convention;RPPS
Professionnel de santé;25/06/2015;Convention | IIXRHSGB | RPC-2015-02208_PS-0055768;Hospitalité - Manifestation : 'Les Surlandaises 2015' Organisé le : '25/06/2015' À : 'institut du thermalisme - 8 rue St Ursule - DAX-40100 / France' ;SANOFI SA;SANOFI AVENTIS FRANCE;10100605806;Convention | IIXRHSGB | RPC-2015-02208_PS-0055768;IIXRHSGB;;BERKANI Abdelkader;Médecin;Médecine Générale;;Convention;RPPS
Professionnel de santé;08/03/2016;Convention | IIXRHSGB | RPC-2016-00774_PS-0360890;Autre : [Réunion] - Manifestation : 'Rencontres Pluridisciplinaires - Parcours de Soins' Organisé le : '08/03/2016' À : 'MERCURE REIMS PARC DES EXPOSITIONS - 2 RUE GABRIEL VOISIN - REIMS-51100 / France' ;SANOFI SA;SANOFI AVENTIS FRANCE;10001752608;Convention | IIXRHSGB | RPC-2016-00774_PS-0360890;IIXRHSGB;;KUNTZ BERTHOU Amelie;Médecin;Médecine Générale;;Convention;RPPS
Professionnel de santé;01/12/2016;Convention | IIXRHSGB | RPC-2016-04018_PS-0643173;Autre : [Réunion] - Manifestation : 'Soirée orthopédie' Organisé le : '01/12/2016' À : 'CLINIQUE ST MICHEL ST ANNE - 88 Rue de Kergestin - QUIMPER-29000 / France' ;SANOFI SA;SANOFI AVENTIS FRANCE;[SO];Convention | IIXRHSGB | RPC-2016-04018_PS-0643173;IIXRHSGB;;VAMBACAS Nathalie;Masseur-kinésithérapeute;Autre;;Convention;AUTRE
Professionnel de santé;17/12/2014;Convention | ZKEJWAGJ | 00000000000000047871;AUTRE : PARTICIPATION A MANIFESTATION SCIENTIFIQUE - Manifestation : 'PRISE EN CHARGE DE LA FIBRILLATION ATRIALE DU SUJET AGE' Organisé le : '17/12/2014' À : 'MARLY LE ROI FR' ;Boehringer Ingelheim;BOEHRINGER INGELHEIM FRANCE;10001362978;Convention | ZKEJWAGJ | 00000000000000047871;ZKEJWAGJ;;SARFATI Laurent;Médecin;Cardiologie et maladies vasculaires;;Convention;RPPS
Professionnel de santé;03/09/2016;Convention | IIXRHSGB | RPC-2016-02897_PS-0064796;Autre : [Réunion] - Manifestation : 'La chirurgie sur mesure : quelle indication ? pour quel patient ?' Organisé le : '03/09/2016' À : 'GOLDEN TULIP VILLA MASSALIA - 17 PLACE BONNEFON - MARSEILLE-13008 / France' ;SANOFI SA;SANOFI AVENTIS FRANCE;10003331443;Convention | IIXRHSGB | RPC-2016-02897_PS-0064796;IIXRHSGB;;BIEGLIO Christian;Médecin;Médecine Générale;;Convention;RPPS
Professionnel de santé;03/09/2016;Convention | IIXRHSGB | RPC-2016-02897_PS-0127123;Autre : [Réunion] - Manifestation : 'La chirurgie sur mesure : quelle indication ? pour quel patient ?' Organisé le : '03/09/2016' À : 'GOLDEN TULIP VILLA MASSALIA - 17 PLACE BONNEFON - MARSEILLE-13008 / France' ;SANOFI SA;SANOFI AVENTIS FRANCE;10003366142;Convention | IIXRHSGB | RPC-2016-02897_PS-0127123;IIXRHSGB;;CERMOLACCE Christophe;Médecin;Chirurgie orthopédique et traumatologie;;Convention;RPPS
Professionnel de santé;03/11/2016;Convention | IIXRHSGB | RPC-2016-03571_PS-1037513;Autre : [Réunion] - Manifestation : 'L'univers des compléments alimentaires Santé Sanofi' Organisé le : '03/11/2016' À : 'LE BISTROT DE L'OCTROI - 111, avenue de Selves - SARLAT LA CANEDA-24200 / France' ;SANOFI SA;SANOFI AVENTIS FRANCE;10100206126;Convention | IIXRHSGB | RPC-2016-03571_PS-1037513;IIXRHSGB;;COUSSY Helene;Pharmacien;Autre;;Convention;RPPS
Professionnel de santé;07/04/2016;Convention | ZKEJWAGJ | 00000000000000144690;AUTRE : PARTICIPATION A MANIFESTATION SCIENTIFIQUE - Manifestation : 'AVC ET FA' Organisé le : '07/04/2016' À : 'ALBI FR' ;Boehringer Ingelheim;BOEHRINGER INGELHEIM FRANCE;10002896875;Convention | ZKEJWAGJ | 00000000000000144690;ZKEJWAGJ;;AMMOR Mohammed;Médecin;Cardiologie et maladies vasculaires;;Convention;RPPS
Professionnel de santé;12/04/2017;Convention | ZKEJWAGJ | 00000000000000194363;Hospitalité - Manifestation : 'LES AVANCEES PRATIQUES DANS LA FA ET LEURS IMPLICATIONS DANS NOS PRATIQUES' Organisé le : '12/04/2017' À : 'CALUIRE ET CUIRE FR' ;Boehringer Ingelheim;BOEHRINGER INGELHEIM FRANCE;10003127593;Convention | ZKEJWAGJ | 00000000000000194363;ZKEJWAGJ;;PUTHOD Gersende;Médecin;Médecine Générale;;Convention;RPPS
Etudiant;11/10/2013;Convention | JUJJFUKK | CONVD-00946;[AUTRE] : [CONVENTION HOSPITALITE] - Manifestation : 'DES de neurologie de l'inter-région Nord Ouest' Organisé le : '11/10/2013' À : 'Paris' ;GlaxoSmithKline;LABORATOIRE GLAXOSMITHKLINE;;Convention | JUJJFUKK | CONVD-00946;JUJJFUKK;;ELINANI Anais;;;;Convention;AUTRE
Professionnel de santé;04/09/2014;Convention | SYCNVYRX | CO20142PNOR29022015-003591;congrès/sumposium - ;Astrazeneca;ASTRAZENECA;10100189694;Convention | SYCNVYRX | CO20142PNOR29022015-003591;SYCNVYRX;;DESPLAN Ardina;Médecin;;;Convention;RPPS
Professionnel de santé;09/10/2013;Convention | IIXRHSGB | CA2013_GEMPAR297929;Convention d'Hospitalité - Manifestation : 'Quoi De Neuf En ORL Pédiatrique ? Recommandations Sur Le Traitement Des Otites Et Bon usage des antibiotiques.' Organisé le : '09/10/2013' À : 'LE TAHITI - LES BALMES - ROMANS SUR ISERE' ;SANOFI SA;SANOFI AVENTIS FRANCE;10003105847;Convention | IIXRHSGB | CA2013_GEMPAR297929;IIXRHSGB;;SOULIE Thomas;Médecin;Médecine Générale;;Convention;RPPS
Professionnel de santé;09/10/2013;Convention | IIXRHSGB | CA2013_GEMPAR297931;Convention d'Hospitalité - Manifestation : 'Quoi De Neuf En ORL Pédiatrique ? Recommandations Sur Le Traitement Des Otites Et Bon usage des antibiotiques.' Organisé le : '09/10/2013' À : 'LE TAHITI - LES BALMES - ROMANS SUR ISERE' ;SANOFI SA;SANOFI AVENTIS FRANCE;10002962933;Convention | IIXRHSGB | CA2013_GEMPAR297931;IIXRHSGB;;LE MERRE Rene;Médecin;Médecine Générale;;Convention;RPPS
Professionnel de santé;02/02/2017;Convention | ZKEJWAGJ | 00000000000000183871;Hospitalité - Manifestation : 'BPCO NOUVELLES RECOMMANDATIONS NOUVELLES PRATIQUES' Organisé le : '02/02/2017' À : 'LA ROCHE SUR YON FR' ;Boehringer Ingelheim;BOEHRINGER INGELHEIM FRANCE;10002571635;Convention | ZKEJWAGJ | 00000000000000183871;ZKEJWAGJ;;FREDEVAL Helene;Médecin;Médecine Générale;;Convention;RPPS
Professionnel de santé;17/11/2016;Convention | ZKEJWAGJ | 00000000000000145862;AUTRE : PARTICIPATION A MANIFESTATION SCIENTIFIQUE - Manifestation : 'BPCO QUESTIONS D ACTUALITE' Organisé le : '17/11/2016' À : 'TORCY FR' ;Boehringer Ingelheim;BOEHRINGER INGELHEIM FRANCE;10001580587;Convention | ZKEJWAGJ | 00000000000000145862;ZKEJWAGJ;;HO NGUYEN Minh Ha;Médecin;Médecine Générale;;Convention;RPPS
Professionnel de santé;28/04/2016;Convention | ZKEJWAGJ | 00000000000000113269;AUTRE : PARTICIPATION A MANIFESTATION SCIENTIFIQUE - Manifestation : 'LES AVANCEES DANS LA FA ET LEURS IMPLICATIONS DANS NOS PRATIQUES' Organisé le : '28/04/2016' À : 'COUDEKERQUE BRANCHE FR' ;Boehringer Ingelheim;BOEHRINGER INGELHEIM FRANCE;10002242708;Convention | ZKEJWAGJ | 00000000000000113269;ZKEJWAGJ;;MARRANT Bertrand;Médecin;Médecine Générale;;Convention;RPPS
Professionnel de santé;24/09/2016;Convention | ZKEJWAGJ | 00000000000000174903;CONGRES / SYMPOSIUM - Manifestation : 'ACTUALITE SUR L ANTICOAGULATION' Organisé le : '24/09/2016' À : 'LYON FR' ;Boehringer Ingelheim;BOEHRINGER INGELHEIM FRANCE;10003038931;Convention | ZKEJWAGJ | 00000000000000174903;ZKEJWAGJ;;ANDONIAN Christian;Médecin;Médecine Générale;;Convention;RPPS
Professionnel de santé;22/01/2016;Convention | ZKEJWAGJ | 00000000000000109768;AUTRE : PARTICIPATION A MANIFESTATION SCIENTIFIQUE - Manifestation : 'QUOI DE NEUF DANS LA BPCO' Organisé le : '22/01/2016' À : 'AUTHUILE FR' ;Boehringer Ingelheim;BOEHRINGER INGELHEIM FRANCE;10001826923;Convention | ZKEJWAGJ | 00000000000000109768;ZKEJWAGJ;;FRANCOIS Patrick;Médecin;Médecine Générale;;Convention;RPPS
Professionnel de santé;22/09/2015;Convention | ZKEJWAGJ | 00000000000000085018;AUTRE : ORATEUR - Manifestation : 'ITINERAIRE POUR UN DIAGNOSTIC PRECIS ET SANS DELAIS DES PNEUMOPATHIES INTERSTITIELLES DIFFUSES' Organisé le : '22/09/2015' À : 'MARLY FR' ;Boehringer Ingelheim;BOEHRINGER INGELHEIM FRANCE;10003807426;Convention | ZKEJWAGJ | 00000000000000085018;ZKEJWAGJ;;HENNEQUIN Laurent;Manipulateur d’électroradiologie médicale;Autre;;Convention;RPPS
