adresse;code_pays;code_postal;entreprise_émmetrice;filiale_déclarante;identifiant_entreprise;pays;secteur;ville
16 Rue de Montbrillant, Buroparc Rive Gauche;FR;69003;ELIVIE;IP Santé domicile;QBSTAWWV;FRANCE;Prestataires associés;LYON
ZI SUD D'ANDREZIEUX, RUE B. THIMONNIER;FR;42173;SIGVARIS MANAGEMENT AG;SIGVARIS;MQKQLNIC;FRANCE;Dispositifs médicaux;SAINT-JUST SAINT-RAMBERT CEDEX
47 BOULEVARD CHARLES V;FR;14600;HEALTHCARE COMPLIANCE CONSULTING FRANCE SAS;HEALTHCARE COMPLIANCE CONSULTING FRANCE SAS;OETEUQSP;FRANCE;Autres;HONFLEUR
10-16 RUE DU COLONEL ROL TANGUY, ZAC DU BOIS MOUSSAY;FR;93240;ISIS MEDICAL;ISIS DIABETE;GXIVOHBB;FRANCE;Prestataires associés;STAINS
8 Rue de l'Est;FR;92100;CREAFIRST;CREAFIRST;ZQKPAZKB;FRANCE;Prestataires associés;BOULOGNE BILLANCOURT
800 Corporate Drive;US;07430;DANAHER;Nobel Biocare USA LLC;GEJLGPVD;ÉTATS-UNIS;Dispositifs médicaux;MAHWAH
2 Rue due Nouveau Bercy;FR;94227;Cook France SARL;Cook France SARL;XSQKIAGK;FRANCE;Dispositifs médicaux;Charenton Le Pont Cedex
2871 Avenue de l'Europe;FR;69140;EYETECHCARE;EYETECHCARE;ARHHJTWT;FRANCE;Dispositifs médicaux;RILLIEUX-LA-PAPE
35 rue du Val de Marne;FR;75013;IPSOS FRANCE;Ipsos Observer;OLTROGGG;FRANCE;Prestataires associés;Paris
Suite 07-09, 25th Floor, LanSheng Building, 2-8 HuaiHai Road (Mid);CN;200021;BIOMET CHINA;BIOMET CHINA;TGCRFPAO;CHINE;Dispositifs médicaux;Shanghai
901 Gateway Boulevard;US;94080;Theravance, Inc.;Theravance, Inc.;PGDDOEMD;ÉTATS-UNIS;Médicaments humains;South San Francisco
Zonnebaan 14;NL;3542EC;DUX B.V.;DUX B.V.;GPTSZMKD;PAYS-BAS;Dispositifs médicaux;Utrecht
1-5-9 Shiba, Sumitoma Fudosan Shiba Bldg. No. 2, 8F Minato-ku;JP;1050014;Biomet Japan, Inc.;Biomet Japan, Inc.;UVECCGEX;JAPON;Dispositifs médicaux;Tokyo
AMINOGATAN 1;SE;431 53;WELLSPECT HEALTHCARE/DENTSPLY IH AB;WELLSPECT HEALTHCARE/DENTSPLY IH AB;RKYUBDPV;SUÈDE;Dispositifs médicaux;MÖLNDAL
5 rue etienne collombet;FR;31470;alveol'air;alveol'air;GZEIBCDO;FRANCE;Prestataires associés;fonsorbes
AUDITION CONSEIL, 68, Avenue Jean Médecin;FR;06000;SNC LCA de NICE;SNC LCA de NICE;BQBMXSNR;FRANCE;Dispositifs médicaux;Nice
ZIL Rue Chaptal;FR;22000;SA CERP BRETAGNE ATLANTIQUE;SA CERP BRETAGNE ATLANTIQUE;CHJDYNZB;FRANCE;Médicaments humains;SAINT-BRIEUC
14 bis avenue micheline Ostermeyer;FR;76190;OPTIQUE E'CAUX;OPTIQUE E'CAUX;FRHGRMDB;FRANCE;Dispositifs médicaux;Yvetot
61 rue de Neuilly;FR;92110;INFECO;INFECO;GKXRBQRJ;FRANCE;Prestataires associés;Clichy
16 Av du Québec, Bat Lys;FR;91140;perkinElmer;perkinElmer;HPXSEHWQ;FRANCE;Dispositifs médicaux de diagnostic in vitro;Villebon sur Yvette
37, Bd Général Leclerc;FR;33120;AUDITION REMI LAMOINE;AUDITION REMI LAMOINE;XXVQWEGO;FRANCE;Dispositifs médicaux;ARCACHON
37 rue des Acacias;FR;75017;K. PARTICULIER;K. PARTICULIER;USLHXJOZ;FRANCE;Prestataires associés;PARIS
217 rue Charles Nungesser, Le Mas des Cavaliers;FR;34130;TRANSYSTEME SN;TRANSYSTEME SN;YLTAJHSI;FRANCE;Dispositifs médicaux;MAUGUIO
704 avenue Roger Salengro;FR;92370;ONIRIS;ONIRIS;MRRGUIXF;FRANCE;Dispositifs médicaux;Chaville
97 allée Alexandre Borodine, Parc Woodclub;FR;69800;Carvadys S.A.S;Carvadys S.A.S;QFNWXURY;FRANCE;Dispositifs médicaux;Saint Priest
222, Rue des Caboeufs;FR;92230;ALPHEGA;ALPHEGA;RKIYNMWN;FRANCE;Prestataires associés;gennevilliers
3545 John Hopkins Court,  Suite 210, CA92121-1121;US;CA 92121;REGULUS THERAPEUTICS INC.;REGULUS THERAPEUTICS INC.;ZTJPATHI;ÉTATS-UNIS;Médicaments humains;SAN DIEGO
1 DNA Way;US;94080;Roche;Genen-Tech Inc;VYLSULBP;ÉTATS-UNIS;Médicaments humains;South San Francisco
37 RUE RENE CASSIN, ZAC LA CHATELAINE;FR;74240;TRB CHEMEDICA;TRB CHEMEDICA;UNIYTFXE;FRANCE;Dispositifs médicaux;GAILLARD
33 Lewis road, welling, kent;GB;da161sd;L&L Rsourcing;L&L Rsourcing;ZDRFIIGZ;ROYAUME-UNI;Autres;Welling
ENERGY PARK Building 03 - Lato Sud, Via Energy Park, 6;IT;20871;NOBEL BIOCARE ITALIANA SRL;NOBEL BIOCARE ITALIANA SRL;DNPLOVNE;ITALIE;Dispositifs médicaux;Vimercate
25 Boulevard Malesherbes;FR;75008;TEOXANE FRANCE;TEOXANE FRANCE;TLGOOVKA;FRANCE;Dispositifs médicaux;Paris
ZA PURETTONE, LOT 28;FR;20290;CORSE OXYGENE;CORSE OXYGENE;SOBANJDS;FRANCE;Dispositifs médicaux;BORGO
70 RUE DE LA REPUBLIQUE;FR;17300;SARL AUNIS AUDITION;SARL AUNIS AUDITION;OEXUFTXY;FRANCE;Dispositifs médicaux;ROCHEFORT
Mauerstr. 8;DE;33602;rc - research & consulting GmbH;rc - research & consulting GmbH;YHVWUHEM;ALLEMAGNE;Autres;Bielefeld
Avenue des Baumettes, 11;CH;1020;ONCommit;ONCommit;XQHUXMYS;SUISSE;Prestataires associés;Renens
5 chemin des Jubins;FR;69570;Ultradent Products GmbH;Ultradent Products GmbH;PKEXPDIP;FRANCE;Dispositifs médicaux;DARDILLY
"ZA Paris NORD II, 22 Avenue des Nations, Immeuble ""Le Rousseau"", BP 55306 Villepinte";FR;95940 ;Ophtalmic Compagnie;Ophtalmic Compagnie;WPDNQYAO;FRANCE;Dispositifs médicaux;Roissy CDG CEDEX
34 ROUTE DE TOULOUSE;FR;33800;SARL AUDITION AQUITAINE;SARL AUDITION AQUITAINE;YJWNPTSX;FRANCE;Autres;BORDEAUX
30 rue Beauséjour;FR;03700;SARL DOMORTHO;SARL DOMORTHO;PKWKBQPX;FRANCE;Dispositifs médicaux;BELLERIVE SUR ALLIER 
Aminogatan 1, box 14;SE;431 21;DENTSPLY IH AB;DENTSPLY IH AB;GCIHESEV;SUÈDE;Dispositifs médicaux;MÖLNDAL
1 Chemin cachalot;RE;97410;AUDITION OUTRE MER;AUDITION OUTRE MER;STDKNBIO;RÉUNION;Autres;SAINT PIERRE
48 Rue Nicolas Oresme;FR;14000;SARL LABORATOIRE DUPONT;SARL LABORATOIRE DUPONT;BMEURKJH;FRANCE;Autres;CAEN
"1, Boulevard VICTOR, Immeuble ""Le Barjac""";FR;75015;ALMIRALL SAS;ALMIRALL SAS;KWUUIQMV;FRANCE;Médicaments humains;PARIS
 P O Box 55922;ZA;2116  ;Roche;Roche Products (Pty) Ltd South Africa;TPVMYCGK;AFRIQUE DU SUD;Dispositifs médicaux de diagnostic in vitro;Northlands 
DUITKOOT 1;NL;3990 GA;KCI EUROPE HOLDING B.V.;KCI EUROPE HOLDING B.V.;HSLKDKYO;PAYS-BAS;Dispositifs médicaux;HOUTON
30 RUE BEAUSEJOUR;FR;03700;Dominique TATE;Dominique TATE;PRXDANVT;FRANCE;Dispositifs médicaux;BELLERIVE SUR ALLIER 
15 rue d'Alsace, ZI;FR;68250;CLIN DATA MANAGEMENT;CLIN DATA MANAGEMENT;GSSMMFHW;FRANCE;Prestataires associés;ROUFFACH
19-21 RUE THALES DE MILET;FR;72000;STATESIA;STATESIA;QAVOXEIB;FRANCE;Autres;LE MANS
9 AVENUE DE LA VERTONNE;FR;44120;DOMISANTE PROXIMED;DOMISANTE PROXIMED;HAPYMGDZ;FRANCE;Dispositifs médicaux;VERTOU
5818 El Camino Real, Californie;US;92008;ALPHATEC SPINE INC;ALPHATEC SPINE INC;EBESTATF;ÉTATS-UNIS;Dispositifs médicaux;Carlsbad
391 rue de l'avenir;FR;69830;ALTEOR;ALTEOR;SVZYVAEH;FRANCE;Dispositifs médicaux;Saint Georges de Reneins
34 Rue de l'avenir;FR;22190;ORMIHL DANET;ORMIHL DANET;BWYSCHUQ;FRANCE;Dispositifs médicaux;PLERIN
79 B Quai de Beauvais;FR;59280;MEDI SYS;MEDI SYS;XRSLPYTG;FRANCE;Dispositifs médicaux;ARMENTIERES
21 Boulevard Saint Martin;FR;75003;SOCIETE FRANCAISE D'ORTHOPEDIE;SOCIETE FRANCAISE D'ORTHOPEDIE;UGYUCDWW;FRANCE;Dispositifs médicaux;PARIS
121 BOULEVARD ANTOINE GAUTIER;FR;33000;AUDITION BOULEVARD MARIE;AUDITION BOULEVARD MARIE;QIGOHULT;FRANCE;Dispositifs médicaux;BORDEAUX
Rue Lavoisier BP60;FR;52800;Eloi Pernet;Eloi Pernet;GLOEZLMI;FRANCE;Dispositifs médicaux;Nogent
60 boulevard du Général Koenig;FR;19100;SARL BRIVE AUDITION;SARL BRIVE AUDITION;JVDSBWEZ;FRANCE;Dispositifs médicaux;Brive la Gaillarde
3M ESPE Dental Products, ESPE Platz;DE;82229;3M;3M Deutschland GmbH;YNBUTRXP;ALLEMAGNE;Dispositifs médicaux;Seefeld
13 et 15 Rue des Amériques;FR;94370;MELLITUS CARE;MELLITUS CARE;AGQOSSSN;FRANCE;Prestataires associés;Sucy-en-Brie
Zone d'activité économique de Cablanc Lot 18;FR;24100;SOS OXYGENE GRAND PERIGORD;SOS OXYGENE GRAND PERIGORD;YTJCHRWB;FRANCE;Prestataires associés;Creysse
10 Valentine Place;GB;SE1 8QH;Kadence international;Kadence international;YSYGHRNL;ROYAUME-UNI;Autres;London
Medicals International Building, Blata Area, Mansourieh;LB;22411;Medicals International (Off-Shore) SARL;Medicals International (Off-Shore) SARL;ZWWYWRDT;LIBAN;Dispositifs médicaux;BEIRUT
Kaisei Bldg., 5F, 1-8-10 Azabudai, Minato-ku;JP;1060041;DENTSPLY IH K.K.;DENTSPLY IH K.K.;IJRATEPZ;JAPON;Dispositifs médicaux;TOKYO
26 Bis Rue Abraham Bosse;FR;37000;TOURS CERAM;TOURS CERAM;IYSPZWVB;FRANCE;Dispositifs médicaux;TOURS
11 place franklin roosevelt;FR;82000;REVOL-BUISSON;REVOL-BUISSON;ESWQGYWI;FRANCE;Autres;montauban
245 Blackfriars Road;GB;SE1 9UL ;GfK Market Access;GfK Market Access;XRIJGLGD;ROYAUME-UNI;Autres;Londres
I.CERAM, 1 rue Columbia;FR;87068;I.CERAM;I.CERAM;KYFDVDZB;FRANCE;Dispositifs médicaux;LIMOGES
2 bis rue Francisco Ferrer;FR;78210;ENTENDRE;ENTENDRE;WSTRWQPX;FRANCE;Dispositifs médicaux;Saint-Cyr L'Ecole
ZI DU CLAIRAY;FR;35133;PANPHARMA;PANPHARMA;TPUMILHG;FRANCE;Médicaments humains;LUITRE
24 Spicer Road;GB;EX1 1SY;OMR Globus;OMR Globus;XJLJSSSH;ROYAUME-UNI;Autres;Exeter
The Tea Building, 56 Shoreditch High Street (3.02);GB;E1 6JJ;All Global;All Global;TJBONPZF;ROYAUME-UNI;Autres;London
149 rue Juliette Dodu;RE;97400;Oceanide;Oceanide;ROJUIKZT;RÉUNION;Dispositifs médicaux;Saint Denis
Woermannkehre 1,;DE;12359;BIOTRONIK SE & Co. KG;BIOTRONIK SE & Co. KG;ILMHFHJD;ALLEMAGNE;Dispositifs médicaux;Berlin
151 boulevard du Cami Salie;FR;64000;SOS OXYGENE PYRENEES CENTRE;SOS OXYGENE PYRENEES CENTRE;NIQOVTFV;FRANCE;Dispositifs médicaux;Pau
201 rue du Docteur Laennec;FR;83210;SOS OXYGENE VAR;SOS OXYGENE VAR;UNJPLOKT;FRANCE;Dispositifs médicaux;LA FARLEDE
Lieudit les Hunaudières Parc du Cormier;FR;72230;SOS OXYGENE PAYS DE LOIRE NORD;SOS OXYGENE PAYS DE LOIRE NORD;OVDVHOOO;FRANCE;Dispositifs médicaux;MULSANNE
19 rue Denis Papin Zone Industrielle Les Roches;FR;85400;SOS OXYGENE SUD LOIRE;SOS OXYGENE SUD LOIRE;OZKCVDQG;FRANCE;Dispositifs médicaux;LUCON
4 rue Edouard Branly, Parc Pissaloup, Bâtiment Hermès II;FR;78190;ORGENTEC SAS;ORGENTEC SAS;WXFJXPPC;FRANCE;Dispositifs médicaux de diagnostic in vitro;TRAPPES
780 rue Blaise Pascal;FR;59267;CERECARE;CERECARE;XZWOMEGR;FRANCE;Dispositifs médicaux;PROVILLE
Ackerstrasse 6;CH;8180 ;BIOTRONIK AG;BIOTRONIK AG;FTTNFORA;SUISSE;Dispositifs médicaux;Bülach 
LD TAMAN;FR;82340;DUNES MEDICAL;DUNES MEDICAL;KMSXCIUM;FRANCE;Dispositifs médicaux;DUNES
42 rue du Kovil Savannah;FR;97460;SOS OXYGENE REUNION;SOS OXYGENE REUNION;OUNDPJHQ;FRANCE;Dispositifs médicaux;Saint Paul
112 quai de Bezons;FR;95100;PENTAX MEDICAL;PENTAX MEDICAL;SRNCWQSZ;FRANCE;Dispositifs médicaux;argenteuil
111 chaussée Jules Ferry;FR;80090;EURL Antoine Durouchez Audition;EURL Antoine Durouchez Audition;EXWHPXGC;FRANCE;Autres;AMIENS
16 rue Lecerf;FR;06400;DUFLOT SANTE;DUFLOT SANTE;ZHJOXQNN;FRANCE;Dispositifs médicaux;Cannes
6 rue Joule, Tourmaline 2;FR;33700;PFM MEDICAL FRANCE;PFM MEDICAL FRANCE;QFVZPVUC;FRANCE;Dispositifs médicaux;MERIGNAC
283 Rue de la Miniere;FR;78530;Varian Medical Systems France Sarl;Varian Medical Systems France Sarl;UZVRILUJ;FRANCE;Dispositifs médicaux;Buc
50-54 rue de Silly;FR;92100;TBWA\ADELPHI;TBWA\ADELPHI;EZXHZGQE;FRANCE;Prestataires associés;Boulogne-Billancourt
4 rue de la Tour-de-l’Ile;CH;1204;Advanced Accelerator Applications International SA;Advanced Accelerator Applications International SA;WQARYFYR;SUISSE;Médicaments humains;Genève
GfK SE, Nordwestring 101;DE;90429;Gesellschaft für Konsumforschung (GfK SE);Gesellschaft für Konsumforschung (GfK SE);VWMTSJLS;ALLEMAGNE;Médicaments humains;Nuremberg
151 rue Andre Durouchez, Espace Industriel Nord;FR;80084;LABORATOIRE UNITHER;LABORATOIRE UNITHER;UKCEKQDQ;FRANCE;Médicaments humains;Amiens
5 rue du Forez Sud;FR;42170;SOS OXYGENE LOIRE HAUTE LOIRE;SOS OXYGENE LOIRE HAUTE LOIRE;DSIXFEVB;FRANCE;Prestataires associés;Saint Just Saint-Rambert
49, Avenue Georges Pompidou;FR;92593;Novartis;SANDOZ;OTXNNJKH;FRANCE;Médicaments humains;LEVALLOIS-PERRET
3 RUE PIERRE CURIE;FR;92400;EMETROP';EMETROP';FXMDREHU;FRANCE;Dispositifs médicaux;COURBEVOIE
100 Wall Street, Floor 2;US;10005;CBPartners;CBPartners;LIHTYTHC;ÉTATS-UNIS;Médicaments humains;New York
189 Rue Léon Blum;FR;69100;LYON KLEBER SANTE;LYON KLEBER SANTE;KNEDEAUP;FRANCE;Dispositifs médicaux;Villeurbanne
21 Boulevard Saint Martin;FR;75003;PARIS KLEBER SANTE;PARIS KLEBER SANTE;QWZEJPGI;FRANCE;Dispositifs médicaux;PARIS
1 Rue des Bourelles;FR;38420;LABORATOIRE SOBER;LABORATOIRE SOBER;NNKLMOBC;FRANCE;Dispositifs médicaux;DOMENE
